<?xml version="1.0" standalone="no"?>
<!DOCTYPE svg PUBLIC "-//W3C//DTD SVG 20010904//EN"
 "http://www.w3.org/TR/2001/REC-SVG-20010904/DTD/svg10.dtd">
<svg version="1.0" xmlns="http://www.w3.org/2000/svg"
 width="772.000000pt" height="512.000000pt" viewBox="0 0 772.000000 512.000000"
 preserveAspectRatio="xMidYMid meet">

<g transform="translate(0.000000,512.000000) scale(0.100000,-0.100000)"
fill="#000000" stroke="none">
<path d="M4727 5113 c-12 -21 -693 -1738 -754 -1903 -20 -52 -48 -129 -63
-170 -16 -41 -41 -106 -58 -145 -16 -38 -50 -126 -76 -195 -26 -69 -59 -152
-72 -185 -13 -33 -24 -67 -24 -75 0 -27 38 62 124 290 46 124 132 347 191 495
58 149 119 304 135 345 16 41 75 194 133 340 57 146 139 355 182 465 43 110
127 321 186 469 60 148 107 271 105 274 -2 2 -6 0 -9 -5z"/>
<path d="M4756 4977 c-69 -168 -80 -195 -184 -442 -44 -104 -149 -354 -232
-555 -84 -201 -155 -367 -159 -370 -3 -3 -7 -13 -9 -23 -2 -10 -34 -97 -73
-195 -74 -188 -73 -187 -180 -442 -38 -91 -88 -210 -111 -265 -22 -55 -56
-133 -75 -174 -18 -41 -32 -76 -30 -78 6 -6 136 24 150 34 6 6 39 25 72 43 68
37 92 39 335 29 144 -7 101 0 -107 17 l-72 6 19 20 c19 21 19 21 0 46 -21 26
-27 47 -11 37 5 -3 12 -1 15 4 3 5 -3 11 -14 14 -11 3 -20 0 -20 -6 0 -7 -5
-4 -11 6 -6 9 -14 15 -19 12 -16 -10 -1 67 19 101 23 39 22 115 -3 184 -9 25
-16 53 -16 63 0 10 -7 29 -16 43 -16 23 -16 26 2 40 10 9 13 13 7 9 -20 -10
-15 13 5 24 9 6 13 11 7 11 -5 0 4 9 22 19 17 11 34 28 37 39 4 10 17 25 31
32 13 7 21 18 18 23 -4 6 0 8 10 4 11 -4 14 -2 10 9 -3 8 0 21 7 29 8 9 8 20
2 31 -9 17 7 44 51 83 9 8 17 22 17 31 0 8 9 33 21 54 11 21 18 40 15 43 -3 3
4 28 15 57 12 28 20 52 19 54 -5 9 16 71 32 94 11 16 17 32 14 37 -4 5 -1 11
5 13 6 2 13 15 14 28 2 14 10 45 19 69 9 24 14 47 11 51 -3 5 -1 11 4 14 7 5
21 48 25 81 1 6 7 20 14 32 6 12 9 29 6 37 -3 9 -1 16 5 16 6 0 8 6 5 13 -3 8
2 20 11 27 8 7 15 21 15 31 0 11 5 19 11 19 5 0 9 8 8 18 -3 24 21 82 33 82 6
0 5 6 -2 15 -11 13 -8 19 11 17 7 -1 34 97 32 121 0 10 2 15 5 12 8 -8 41 69
45 105 2 18 10 36 18 41 8 5 10 9 4 9 -5 0 -4 5 2 11 6 6 9 18 6 25 -3 8 0 14
7 14 6 0 9 4 6 9 -3 4 1 17 9 27 8 10 15 29 15 42 0 12 4 22 8 22 8 0 38 98
34 113 -1 4 3 7 8 7 6 0 10 7 10 15 0 8 4 15 9 15 6 0 13 20 16 44 6 35 10 43
23 39 10 -4 13 -2 8 5 -4 6 0 25 9 42 14 28 14 30 -2 30 -14 0 -33 -36 -77
-143z"/>
<path d="M7215 5078 c-21 -24 -196 -205 -389 -403 -536 -550 -572 -588 -553
-581 10 3 23 6 28 6 6 0 7 6 3 13 -5 9 -4 9 5 1 13 -12 61 -7 61 7 0 5 5 9 10
9 6 0 24 10 40 21 16 12 36 19 44 16 11 -4 16 -1 16 11 0 9 22 41 48 70 26 29
60 68 76 87 16 19 38 37 49 41 11 4 31 16 43 28 13 11 35 30 49 41 54 41 136
129 139 149 2 15 11 22 34 24 20 2 32 9 32 18 0 17 16 19 23 2 3 -7 6 0 6 15
1 16 5 26 10 23 5 -4 22 7 37 23 15 17 32 27 37 24 6 -3 7 -1 3 5 -3 6 3 16
14 22 15 8 20 8 21 -2 1 -7 5 -2 9 12 6 18 8 20 9 7 1 -10 6 -15 11 -12 6 4 8
11 4 16 -3 5 0 8 8 7 8 -2 13 6 12 20 -1 12 3 22 7 22 5 0 9 13 9 30 0 22 4
28 15 24 8 -3 13 -9 12 -12 -2 -8 7 -12 28 -12 9 0 12 6 9 15 -4 8 -11 12 -17
8 -6 -3 -7 -1 -3 5 4 7 16 12 28 12 14 0 18 5 15 15 -7 16 12 32 22 19 8 -12
34 -17 27 -5 -4 5 -2 12 4 16 6 4 8 11 5 16 -4 5 1 12 9 15 8 3 18 14 21 25 4
10 10 18 15 16 5 -1 16 7 25 18 9 11 13 13 9 5 -5 -11 -2 -10 13 3 14 12 19
26 15 45 -4 22 -2 25 9 15 19 -19 34 -16 18 4 -12 14 -12 16 2 11 9 -3 22 -3
29 2 7 4 -41 9 -107 9 l-120 2 -38 -43z"/>
<path d="M4410 4985 c-10 -12 -10 -15 3 -15 8 0 17 7 21 15 3 8 2 15 -3 15 -5
0 -14 -7 -21 -15z"/>
<path d="M2043 4759 c-78 -9 -217 -42 -270 -64 -85 -36 -221 -209 -259 -331
-12 -40 -34 -97 -48 -127 -22 -46 -34 -99 -49 -212 -2 -16 -8 -39 -12 -50 -8
-17 -7 -18 7 -8 13 11 14 8 3 -35 -7 -26 -9 -48 -5 -50 3 -1 5 -32 3 -68 -3
-39 0 -70 6 -78 6 -8 9 -21 5 -30 -3 -9 -1 -16 5 -16 6 0 11 -7 11 -16 0 -9 9
-28 19 -43 11 -15 25 -48 31 -73 7 -26 21 -56 31 -67 11 -12 17 -21 13 -21 -3
0 -1 -7 7 -16 11 -14 14 -13 25 8 21 37 28 126 15 183 -7 32 -27 73 -51 105
-45 60 -73 128 -89 215 -10 52 -9 63 9 100 28 58 82 80 133 54 31 -16 77 -60
77 -74 0 -7 12 -17 26 -24 25 -11 26 -10 22 14 -3 14 1 30 8 36 11 9 16 5 26
-17 7 -16 19 -33 26 -38 8 -4 20 -22 27 -39 l13 -30 11 53 c10 44 71 153 71
125 0 -5 14 12 30 39 17 26 35 44 40 41 6 -3 10 -2 10 3 0 6 9 8 20 5 13 -3
20 0 20 8 1 10 5 8 15 -5 14 -18 15 -18 25 8 5 15 10 33 10 39 0 7 7 23 16 35
11 16 20 20 31 13 9 -4 24 -6 33 -4 10 3 47 -4 82 -16 34 -11 92 -30 128 -42
97 -31 121 -46 118 -72 -2 -12 -7 -28 -12 -35 -4 -7 -3 -19 4 -27 10 -12 10
-15 0 -15 -10 0 -10 -3 -1 -14 14 -16 -2 -32 -20 -20 -9 5 -90 8 -162 5 -22
-1 -18 -5 56 -64 27 -22 47 -47 47 -58 0 -17 -7 -19 -67 -18 -119 2 -119 2
-100 -19 21 -23 80 -249 74 -282 -3 -14 -16 -54 -31 -89 -14 -35 -23 -61 -19
-58 3 4 13 -2 22 -12 9 -10 22 -20 30 -22 11 -4 7 -12 -14 -31 -16 -15 -34
-24 -43 -20 -10 3 -13 1 -8 -6 4 -7 1 -15 -8 -18 -9 -3 -16 -10 -16 -16 0 -5
-7 -16 -15 -24 -8 -9 -15 -28 -15 -44 0 -16 -4 -30 -10 -32 -5 -2 -3 -24 6
-55 13 -43 19 -52 40 -55 l25 -3 -20 -21 c-11 -12 -17 -25 -13 -29 4 -4 0 -5
-8 -4 -8 2 -26 -4 -40 -14 -14 -9 -35 -15 -45 -12 -73 17 -95 25 -135 50 -46
29 -111 42 -155 31 -23 -6 -26 -11 -24 -49 3 -53 -15 -89 -39 -80 -16 7 -16 6
0 -19 10 -15 52 -82 94 -150 132 -212 149 -237 155 -237 12 -1 2 153 -11 181
-11 24 -9 34 26 99 22 40 50 80 64 90 23 17 28 18 78 3 46 -14 52 -19 52 -42
0 -19 -8 -32 -28 -43 -49 -28 -64 -77 -65 -208 -1 -89 3 -123 15 -146 18 -34
72 -87 106 -104 26 -14 23 -22 52 114 11 55 28 110 36 123 16 24 53 42 82 41
9 0 2 -5 -17 -12 -43 -15 -71 -52 -78 -104 -7 -52 13 -113 36 -113 9 0 23 -6
30 -12 11 -11 12 -8 7 15 -5 21 -3 28 6 25 7 -3 13 -17 13 -32 0 -15 5 -30 11
-34 7 -4 13 -16 15 -27 7 -34 34 -25 31 10 -6 51 -5 146 1 152 4 3 23 6 43 7
32 1 38 -3 46 -27 7 -21 6 -36 -6 -61 -9 -19 -16 -49 -16 -68 0 -19 -5 -39
-11 -45 -6 -6 -13 -26 -16 -44 -2 -19 -9 -35 -14 -37 -5 -2 -9 -13 -9 -24 0
-12 -3 -18 -7 -15 -3 4 -12 -2 -20 -13 -8 -11 -18 -20 -23 -20 -5 0 -28 29
-51 65 -23 36 -43 65 -45 65 -5 0 13 -56 25 -78 26 -49 6 -41 -63 26 -41 40
-80 72 -87 72 -7 0 23 -34 65 -75 42 -41 81 -75 86 -75 5 0 41 -45 81 -100 39
-55 76 -100 83 -99 26 3 56 -14 56 -33 0 -11 24 -45 54 -76 57 -61 136 -192
136 -229 0 -12 8 -27 19 -32 24 -13 51 -71 51 -109 0 -26 6 -33 43 -51 24 -12
49 -21 56 -21 8 0 38 -14 68 -31 62 -35 97 -33 115 6 6 14 16 25 21 25 5 0 7
13 4 30 -4 18 -2 30 4 30 7 0 8 -34 3 -105 l-7 -105 44 -19 c24 -11 44 -19 45
-18 6 6 30 380 39 620 l6 168 -33 13 c-18 7 -80 18 -138 25 -148 17 -243 31
-249 37 -3 2 5 11 17 20 19 13 21 22 16 50 -5 29 -4 34 14 34 35 0 44 23 37
97 -7 71 2 113 33 146 9 10 24 40 33 65 9 26 21 46 27 45 6 -2 22 11 36 27 31
37 126 194 126 208 0 9 -154 122 -166 122 -3 0 -31 17 -62 39 -108 73 -233
126 -357 151 -90 18 -90 19 -45 79 45 60 80 163 80 237 0 37 5 52 19 61 10 6
27 34 37 62 9 27 21 48 25 46 4 -3 12 9 19 26 11 25 10 41 -2 92 -11 46 -12
67 -4 82 5 11 9 24 8 28 -1 5 2 6 8 2 6 -4 19 13 30 38 18 41 19 54 10 168
-13 165 -12 287 1 349 14 67 7 92 -43 146 -37 40 -45 44 -88 44 -36 0 -51 5
-69 24 -36 38 -145 87 -229 102 -85 15 -217 16 -329 3z m-116 -461 c-3 -8 -6
-5 -6 6 -1 11 2 17 5 13 3 -3 4 -12 1 -19z m55 -16 c3 -9 1 -26 -3 -37 -6 -15
-8 -11 -8 18 -1 40 4 48 11 19z m-122 -52 c-6 -11 -13 -20 -16 -20 -2 0 0 9 6
20 6 11 13 20 16 20 2 0 0 -9 -6 -20z m62 -12 c-8 -8 -9 -4 -5 13 4 13 8 18
11 10 2 -7 -1 -18 -6 -23z m75 10 c-3 -8 -6 -5 -6 6 -1 11 2 17 5 13 3 -3 4
-12 1 -19z m349 -376 c-4 -3 -14 2 -24 12 -16 18 -16 18 6 6 13 -6 21 -14 18
-18z m210 -195 c30 -51 54 -109 54 -131 0 -6 -4 -5 -9 3 -7 11 -10 10 -15 -6
-8 -24 -61 -73 -78 -73 -10 0 -9 3 1 9 8 5 10 14 6 21 -4 7 -2 16 6 21 26 16
1 19 -45 5 -27 -8 -54 -12 -61 -10 -30 12 -26 51 10 94 7 8 17 30 24 49 13 40
39 70 61 70 8 0 29 -23 46 -52z m-137 -246 l25 -19 -40 -11 c-50 -14 -51 -14
-58 4 -16 43 30 59 73 26z m-49 -153 c0 -12 4 -16 12 -12 7 5 8 3 4 -5 -9 -14
-40 9 -57 41 -9 16 -7 17 16 6 14 -6 25 -20 25 -30z m-29 -15 l21 -33 -31 0
c-18 0 -31 5 -31 13 0 6 -3 23 -7 36 -9 35 23 24 48 -16z m158 -89 c-13 -14
-46 -41 -74 -60 -37 -26 -41 -28 -17 -7 18 15 49 43 70 60 45 39 54 42 21 7z
m-149 -129 c-13 -14 -28 -25 -34 -25 -6 0 3 11 19 25 39 31 45 32 15 0z m115
-404 c-3 -12 -10 -21 -15 -21 -4 0 -3 11 3 24 14 29 22 27 12 -3z m-114 -32
c-6 -16 -10 -18 -10 -7 -1 22 12 55 16 42 2 -6 -1 -22 -6 -35z m905 -696 c-4
-43 -12 -105 -18 -138 -5 -33 -10 -67 -10 -76 1 -12 -5 -15 -19 -12 -10 3 -16
9 -13 14 3 5 -2 16 -10 25 -20 20 -21 45 -1 38 16 -6 18 1 15 52 -1 17 6 36
14 43 9 7 21 40 28 72 7 32 14 59 16 59 2 0 1 -35 -2 -77z m-86 -235 c-1 -26
-3 -30 -10 -16 -6 9 -7 23 -4 32 9 25 14 19 14 -16z m20 -88 c0 -5 -4 -10 -10
-10 -5 0 -10 5 -10 10 0 6 5 10 10 10 6 0 10 -4 10 -10z"/>
<path d="M7345 4690 c-4 -6 -11 -7 -17 -4 -7 5 -8 2 -3 -6 6 -10 4 -12 -9 -7
-10 4 -15 3 -11 -3 3 -6 0 -10 -8 -10 -7 0 -14 -7 -14 -15 0 -8 3 -15 6 -15 4
0 12 -9 18 -20 9 -14 10 -21 1 -26 -7 -4 -8 -3 -4 4 4 7 2 12 -3 12 -6 0 -11
-7 -11 -15 0 -8 4 -15 9 -15 14 0 64 51 56 58 -4 4 -10 1 -12 -6 -3 -6 -9 -10
-13 -7 -5 3 -7 12 -3 20 4 11 0 14 -13 9 -18 -5 -18 -5 0 6 14 10 20 10 26 0
4 -7 15 -10 25 -7 11 5 14 3 10 -6 -4 -6 0 -5 7 3 8 8 19 20 26 25 9 8 7 11
-8 12 -11 1 -20 -2 -20 -8 0 -5 -6 -9 -14 -9 -9 0 -13 7 -11 20 4 22 0 26 -10
10z"/>
<path d="M4140 4618 c-29 -18 -56 -40 -58 -48 -3 -8 11 0 32 18 20 17 43 32
50 32 8 0 19 7 26 15 18 21 11 19 -50 -17z"/>
<path d="M7199 4541 c5 -9 6 -22 4 -28 -3 -7 0 -13 5 -13 14 0 23 28 11 35 -5
4 -7 10 -5 14 3 4 -1 8 -9 8 -9 0 -11 -5 -6 -16z"/>
<path d="M7445 4219 c-434 -338 -520 -407 -539 -428 -11 -12 -23 -21 -28 -21
-11 0 -169 -122 -189 -146 -20 -25 -166 -134 -178 -134 -6 0 -11 -4 -11 -9 0
-5 -31 -34 -69 -64 -37 -31 -76 -63 -85 -72 -9 -9 -23 -18 -31 -19 -8 -1 -21
-9 -27 -18 -18 -21 -156 -129 -165 -128 -4 1 -10 -5 -13 -13 -3 -8 -29 -34
-59 -57 -30 -24 -51 -38 -47 -31 13 20 -10 12 -30 -11 -19 -22 -19 -23 1 -8
16 11 18 11 8 0 -7 -8 -19 -15 -27 -16 -14 -2 -146 -102 -146 -111 0 -3 29 18
65 46 36 28 65 49 65 47 0 -12 -124 -104 -135 -100 -6 3 -18 -3 -26 -12 -12
-16 -12 -17 1 -9 13 8 13 7 1 -8 -15 -18 -26 -23 -16 -7 3 6 3 10 0 10 -8 0
-199 -152 -203 -162 -2 -4 -8 -8 -13 -8 -14 0 -10 63 6 84 8 11 15 29 15 40 0
20 -2 19 -20 -4 -16 -21 -36 -86 -30 -99 1 -2 -5 -8 -13 -13 -21 -11 -31 -62
-17 -87 8 -16 8 -21 -3 -21 -7 0 -19 -16 -27 -35 -7 -19 -21 -36 -29 -38 -9
-2 3 -7 26 -11 37 -7 47 -4 86 23 38 26 44 34 40 58 -3 27 -3 27 7 5 l10 -23
55 38 c44 31 55 44 56 68 1 24 3 25 6 8 2 -13 7 -23 9 -23 3 0 30 17 59 38 44
30 55 43 56 67 1 24 3 25 6 8 2 -13 7 -23 9 -23 3 0 35 21 71 47 58 41 64 49
61 75 -3 15 -1 28 3 28 4 0 9 -11 11 -25 3 -26 4 -25 78 28 l74 54 -1 49 -2
49 12 -43 12 -42 83 57 c67 47 82 62 82 83 0 14 -5 31 -10 36 -6 6 -7 19 -4
29 7 18 8 18 15 -1 4 -10 8 -31 8 -46 1 -16 4 -28 7 -28 3 0 48 29 98 64 l93
65 -4 58 c-3 63 3 61 15 -4 l7 -41 108 74 c106 74 107 75 107 115 0 37 -2 40
-22 33 -22 -6 -22 -6 -5 13 9 11 17 26 17 33 0 26 13 0 24 -50 l11 -50 135 92
135 93 -7 60 c-5 33 -7 67 -5 75 5 20 27 -57 27 -92 0 -16 3 -28 6 -28 3 0 67
43 142 96 l137 95 -4 47 c-4 58 -8 65 -30 53 -13 -7 -18 -6 -18 4 0 8 3 14 6
13 22 -2 31 5 31 25 1 35 16 2 30 -65 6 -32 13 -58 16 -58 2 0 34 21 71 48 38
26 107 74 156 107 l87 59 0 178 c0 98 -1 178 -2 178 -2 0 -124 -95 -273 -211z
m35 -218 c0 -5 -21 -16 -46 -25 -42 -14 -45 -14 -42 2 2 11 17 19 43 23 22 3
41 7 43 8 1 0 2 -3 2 -8z m-645 -471 c-3 -5 -13 -10 -21 -10 -8 0 -14 5 -14
10 0 6 9 10 21 10 11 0 17 -4 14 -10z"/>
<path d="M4015 4213 c-53 -27 -71 -50 -73 -94 -2 -26 1 -38 8 -34 5 3 10 20
10 36 0 36 21 35 31 -2 l7 -24 2 25 c1 14 2 31 1 38 -1 8 6 23 15 34 17 18 19
18 31 2 10 -13 13 -14 13 -3 0 31 -14 38 -45 22z"/>
<path d="M2420 4149 c0 -5 5 -7 10 -4 6 3 10 8 10 11 0 2 -4 4 -10 4 -5 0 -10
-5 -10 -11z"/>
<path d="M3917 4093 c-4 -3 -7 -11 -7 -17 0 -6 5 -5 12 2 6 6 9 14 7 17 -3 3
-9 2 -12 -2z"/>
<path d="M1487 4062 c-18 -19 -23 -95 -10 -142 5 -19 10 -7 18 50 7 41 15 83
19 93 11 22 -6 22 -27 -1z"/>
<path d="M1841 4044 c0 -11 3 -14 6 -6 3 7 2 16 -1 19 -3 4 -6 -2 -5 -13z"/>
<path d="M6149 3983 c-372 -395 -1006 -1036 -1027 -1039 -9 -2 -18 -8 -20 -14
-2 -5 -8 -8 -13 -5 -5 4 -6 0 -3 -8 3 -8 -2 -20 -11 -27 -12 -10 -15 -10 -15
3 0 8 -7 18 -16 21 -14 6 -15 4 -4 -9 11 -13 11 -16 0 -13 -8 2 -17 -11 -22
-32 -12 -44 -54 -100 -75 -100 -9 0 -14 -3 -10 -6 8 -9 -8 -28 -98 -116 -46
-45 -86 -76 -94 -73 -8 3 -11 0 -8 -9 8 -20 -3 -27 -24 -15 -15 8 -21 6 -26
-8 -4 -10 -11 -22 -17 -26 -7 -5 -2 -7 11 -4 l23 5 -21 -26 c-18 -24 -19 -27
-4 -30 9 -2 47 6 85 17 89 27 234 29 279 4 31 -18 39 -37 22 -47 -5 -4 -12
-25 -16 -49 -4 -23 -12 -48 -18 -55 -5 -7 -8 -14 -6 -17 2 -2 28 25 57 60 43
53 52 70 52 103 0 32 5 43 28 57 27 18 27 18 10 -2 -10 -11 -18 -23 -18 -26 0
-18 26 -3 69 39 37 38 41 46 23 41 -20 -5 -17 2 19 41 24 26 46 49 49 52 3 3
11 17 17 33 7 15 17 27 23 27 5 0 10 4 10 10 0 5 -8 7 -17 3 -10 -3 -4 6 12
20 17 15 26 27 21 27 -9 0 125 133 184 183 14 12 27 27 29 32 2 6 17 18 32 27
16 10 29 25 29 33 0 9 3 14 8 12 4 -2 22 11 40 30 54 53 23 38 -45 -23 -35
-31 -63 -52 -63 -48 0 4 -8 -2 -17 -12 -10 -11 -26 -18 -35 -16 -12 2 -16 -1
-12 -11 3 -8 0 -18 -6 -22 -6 -3 -9 -1 -8 6 2 6 -1 13 -7 15 -17 6 -38 -13
-41 -38 -1 -12 -3 -26 -3 -30 -2 -15 -21 -8 -21 8 0 11 -6 14 -21 9 -28 -9
-56 -38 -51 -53 2 -6 -1 -19 -7 -29 -9 -15 -10 -11 -11 20 0 28 4 37 17 37 15
0 15 2 -1 19 -19 20 -31 111 -15 111 5 0 9 5 9 12 0 6 18 28 40 48 26 24 38
43 34 53 -4 11 -1 14 13 11 12 -3 25 6 42 31 13 19 27 35 32 35 5 0 9 9 9 20
0 11 6 20 13 20 17 0 91 69 100 94 4 11 13 16 22 12 8 -3 15 0 15 6 0 6 20 30
45 54 25 23 45 46 45 52 0 6 5 14 12 18 7 5 8 3 3 -6 -5 -9 -4 -11 3 -6 7 4
12 14 12 22 0 8 4 14 9 14 5 0 13 9 16 21 5 16 73 94 122 141 78 75 136 123
157 131 10 4 20 16 23 27 3 12 20 27 39 35 19 8 40 27 50 47 9 18 25 39 35 46
11 7 19 19 19 26 0 12 -31 46 -42 46 -3 0 -38 -35 -79 -77z m-859 -1068 c0
-19 -8 -39 -20 -50 -24 -22 -29 -55 -5 -35 20 17 31 -10 15 -39 -11 -22 -30
-28 -30 -11 0 6 -4 10 -9 10 -5 0 -8 -11 -5 -24 2 -15 -2 -26 -11 -30 -8 -3
-15 0 -15 7 0 9 -3 8 -9 -1 -5 -9 -8 -5 -8 15 0 15 -1 46 -2 68 -3 58 2 73 40
116 31 35 35 37 47 22 6 -9 12 -31 12 -48z"/>
<path d="M7655 4005 c-33 -23 -170 -116 -305 -207 -346 -234 -479 -325 -693
-473 -103 -71 -251 -174 -330 -228 -78 -53 -164 -114 -192 -134 -27 -20 -66
-48 -85 -62 -19 -14 -38 -27 -42 -27 -5 -1 -11 -2 -15 -3 -5 -1 -3 -5 4 -9 6
-4 17 -62 25 -129 l13 -122 77 45 78 46 -6 57 c-15 124 -20 146 -35 143 -11
-3 -12 -1 -1 9 6 7 12 26 12 42 0 15 4 26 9 23 4 -3 14 -62 21 -131 8 -69 17
-125 21 -125 6 0 128 69 166 95 8 5 -21 121 -30 127 -9 6 -9 8 1 8 28 0 9 20
-20 20 l-33 1 28 24 c15 13 27 27 27 31 0 3 -12 -2 -27 -11 l-28 -18 27 29
c19 21 26 36 21 52 -3 13 -1 22 6 22 6 0 11 -9 11 -19 0 -51 9 -50 93 7 45 30
87 60 92 65 19 18 -40 -16 -104 -60 -35 -24 -66 -41 -69 -38 -8 7 6 19 48 42
19 10 56 33 83 51 41 29 47 38 47 67 0 57 18 40 28 -27 5 -35 10 -51 11 -37 1
23 18 38 106 94 59 37 104 69 102 72 -5 5 -125 -67 -174 -104 -20 -15 -34 -20
-38 -13 -3 5 2 13 12 17 19 7 123 76 167 111 18 14 26 29 26 51 0 17 4 31 9
31 9 0 21 -62 42 -212 7 -49 16 -88 21 -88 6 0 267 147 274 154 2 2 -38 241
-41 244 -5 6 -61 -26 -153 -86 -48 -31 -92 -61 -99 -65 -8 -5 -13 -3 -13 6 0
8 11 19 24 25 14 6 43 27 64 47 22 19 45 35 51 35 6 0 11 5 11 11 0 5 4 7 10
4 5 -3 28 9 50 27 32 26 40 40 40 66 0 22 4 32 12 30 7 -3 23 -70 38 -161 15
-87 29 -159 31 -162 4 -3 272 147 288 161 4 4 -39 253 -46 266 -4 9 -102 -50
-202 -121 -39 -28 -73 -51 -76 -51 -3 0 -5 8 -5 18 0 12 13 23 38 31 20 8 53
26 72 40 19 15 46 34 60 43 14 10 42 33 64 52 32 28 37 39 32 59 -6 24 8 46
21 33 3 -3 20 -80 38 -171 17 -91 35 -168 38 -171 4 -4 57 22 119 58 l113 65
3 166 c1 92 0 167 -4 167 -3 0 -67 -41 -141 -90 -75 -50 -138 -88 -142 -84 -3
3 2 11 13 18 10 6 36 25 59 41 22 17 68 48 102 70 114 73 117 76 113 121 l-3
40 -60 -41z m-1425 -1050 c0 -2 -9 -9 -20 -15 -12 -6 -20 -7 -20 -1 0 5 8 12
18 14 9 3 18 5 20 6 1 0 2 -1 2 -4z m-185 -125 c-10 -11 -21 -17 -24 -14 -3 3
3 12 13 20 28 20 32 17 11 -6z"/>
<path d="M1602 4028 c-18 -18 -14 -38 7 -38 27 0 37 19 19 36 -11 11 -16 12
-26 2z"/>
<path d="M4135 3999 c-4 -6 -5 -12 -2 -15 2 -3 7 2 10 11 7 17 1 20 -8 4z"/>
<path d="M4045 3954 c-19 -17 -24 -29 -17 -36 12 -12 62 28 62 49 0 20 -14 16
-45 -13z"/>
<path d="M1583 3940 c-37 -16 -43 -24 -43 -48 0 -38 27 -69 66 -77 23 -4 33
-2 37 9 5 12 -1 13 -29 9 -40 -7 -45 8 -9 31 20 13 55 72 55 92 0 9 -38 1 -77
-16z"/>
<path d="M4037 3894 c-10 -10 -9 -44 2 -44 13 0 23 32 13 42 -5 5 -11 5 -15 2z"/>
<path d="M3916 3687 c3 -10 9 -15 12 -12 3 3 0 11 -7 18 -10 9 -11 8 -5 -6z"/>
<path d="M3939 3622 c-27 -24 -30 -32 -21 -48 10 -17 11 -17 23 9 7 15 16 27
20 27 5 0 13 9 19 20 16 29 -4 25 -41 -8z"/>
<path d="M7350 3367 c-468 -268 -592 -340 -730 -425 -163 -100 -371 -225 -395
-237 -11 -5 -36 -22 -55 -37 -19 -14 -61 -40 -92 -57 -32 -16 -53 -31 -48 -33
5 -2 14 -57 21 -123 6 -66 15 -126 18 -132 5 -9 27 -3 83 24 71 33 77 38 72
62 -11 62 -32 266 -28 270 10 11 16 -15 31 -140 9 -74 18 -136 19 -138 2 -2
42 13 90 35 l86 38 -6 36 c-3 19 -6 41 -6 48 0 9 -12 6 -40 -8 -50 -25 -90
-41 -90 -35 0 2 13 11 29 19 27 14 29 19 25 60 -4 40 -1 47 27 70 30 25 31 30
25 76 -4 30 -3 50 3 50 5 0 13 -20 17 -45 3 -25 9 -45 13 -43 4 2 47 27 97 56
l90 52 -6 51 c-6 47 -1 67 14 52 3 -3 6 -21 6 -39 0 -18 4 -35 10 -39 5 -3 58
20 117 52 l109 58 -8 50 c-9 57 -1 94 12 59 5 -11 11 -45 15 -76 7 -52 8 -55
33 -52 144 12 172 14 172 9 0 -2 -17 -13 -37 -24 -48 -25 -35 -27 15 -2 48 24
84 32 99 23 7 -5 19 -26 27 -47 21 -57 19 -19 -4 115 -37 209 -41 232 -35 238
13 14 24 -23 49 -168 15 -85 29 -167 32 -182 l5 -27 77 35 c42 19 85 44 94 55
10 11 22 18 27 15 7 -5 94 27 109 39 1 1 -15 93 -38 203 -22 111 -40 203 -40
207 0 3 6 5 14 5 10 0 24 -54 51 -192 20 -106 40 -196 44 -201 4 -4 39 8 79
25 l72 33 0 243 c0 133 -3 242 -7 242 -5 0 -168 -92 -363 -203z"/>
<path d="M870 3340 c0 -5 5 -10 11 -10 5 0 7 5 4 10 -3 6 -8 10 -11 10 -2 0
-4 -4 -4 -10z"/>
<path d="M6723 3247 c-35 -23 -63 -45 -63 -50 0 -5 -7 -15 -15 -23 -11 -12
-12 -20 -5 -35 6 -11 8 -24 4 -30 -3 -6 3 -19 15 -30 27 -26 27 -30 -11 -56
-24 -17 -34 -19 -40 -10 -5 8 -8 5 -8 -8 0 -50 14 -48 126 20 l110 65 -13 73
c-6 39 -12 84 -13 100 0 36 -13 34 -87 -16z"/>
<path d="M4060 3169 c0 -5 5 -7 10 -4 6 3 10 8 10 11 0 2 -4 4 -10 4 -5 0 -10
-5 -10 -11z"/>
<path d="M4166 3050 c-11 -22 -23 -40 -27 -40 -5 0 -6 -7 -2 -16 6 -15 8 -15
20 2 7 10 13 13 13 7 0 -6 -7 -16 -15 -23 -18 -15 -20 -37 -3 -42 8 -3 7 -14
-5 -38 -9 -18 -17 -34 -17 -34 0 -7 46 -3 50 5 9 14 41 0 33 -15 -3 -6 -2 -7
3 -3 12 12 12 60 0 69 -6 4 -14 2 -19 -5 -6 -8 -7 -6 -3 6 3 10 0 26 -6 37 -9
15 -9 24 2 44 9 18 10 34 4 56 l-9 30 -19 -40z m54 -160 c0 -5 -4 -10 -10 -10
-5 0 -10 5 -10 10 0 6 5 10 10 10 6 0 10 -4 10 -10z"/>
<path d="M6591 3074 c0 -11 3 -14 6 -6 3 7 2 16 -1 19 -3 4 -6 -2 -5 -13z"/>
<path d="M5415 3060 c-3 -5 1 -10 9 -10 9 0 16 5 16 10 0 6 -4 10 -9 10 -6 0
-13 -4 -16 -10z"/>
<path d="M7630 3026 c-47 -23 -108 -51 -136 -64 -28 -12 -154 -70 -280 -128
-126 -58 -250 -115 -276 -126 -27 -12 -45 -25 -41 -31 3 -6 1 -7 -5 -3 -6 4
-20 2 -31 -3 -10 -6 -92 -34 -182 -62 -132 -41 -171 -49 -206 -44 l-42 6 1
-49 c1 -27 -2 -54 -7 -61 -10 -18 -87 -51 -99 -44 -5 3 -6 2 -3 -4 4 -6 -13
-18 -36 -28 -23 -10 -77 -35 -120 -57 -43 -21 -85 -38 -93 -38 -17 0 -17 1 -3
-39 6 -18 14 -31 18 -29 3 2 38 16 78 32 l71 28 -5 39 c-4 25 -2 39 6 39 6 0
11 -9 11 -19 0 -46 9 -51 53 -32 23 10 62 26 85 36 43 18 44 19 40 62 -3 43 5
57 16 27 3 -9 6 -27 6 -40 0 -32 12 -31 118 16 150 67 309 99 358 72 20 -11
22 -9 28 21 12 65 89 114 326 207 85 34 170 70 190 80 19 11 80 38 135 61 55
22 104 44 108 48 4 5 7 44 5 88 l-3 80 -85 -41z m-47 -88 c3 -18 1 -37 -4 -42
-12 -13 -15 -7 -23 37 -5 29 -4 37 7 37 9 0 17 -13 20 -32z m-343 -138 c0 -11
-4 -20 -10 -20 -5 0 -10 2 -10 4 0 2 -3 11 -6 20 -4 11 -1 16 10 16 9 0 16 -8
16 -20z m-94 -18 c-2 -4 -26 -18 -53 -29 -137 -61 -167 -73 -158 -64 9 8 203
100 213 101 2 0 1 -4 -2 -8z"/>
<path d="M5421 3004 c0 -11 3 -14 6 -6 3 7 2 16 -1 19 -3 4 -6 -2 -5 -13z"/>
<path d="M4217 2972 c-10 -11 -14 -22 -10 -25 15 -9 35 9 31 28 -3 16 -5 15
-21 -3z"/>
<path d="M6517 2976 c-9 -9 -22 -16 -30 -16 -8 0 -20 -6 -26 -13 -14 -18 -69
-10 -75 12 -3 9 -3 -15 0 -54 3 -38 7 -72 9 -73 2 -2 47 22 100 54 78 46 95
61 93 78 -4 26 -49 34 -71 12z m-86 -67 c-16 -6 -28 -6 -35 1 -7 7 1 10 25 9
32 0 33 -1 10 -10z"/>
<path d="M5370 2959 c0 -5 5 -7 10 -4 6 3 10 8 10 11 0 2 -4 4 -10 4 -5 0 -10
-5 -10 -11z"/>
<path d="M6892 2875 c0 -16 4 -43 8 -60 11 -42 11 -1 1 50 -7 34 -9 35 -9 10z"/>
<path d="M4255 2850 c3 -5 8 -10 11 -10 2 0 4 5 4 10 0 6 -5 10 -11 10 -5 0
-7 -4 -4 -10z"/>
<path d="M5920 2810 c-30 -21 -58 -39 -62 -40 -4 0 -63 -39 -130 -87 -68 -48
-149 -104 -180 -126 l-58 -39 5 -56 c13 -136 17 -162 21 -162 3 0 23 10 45 23
l41 22 -7 120 c-7 128 3 156 12 33 3 -40 8 -87 12 -105 l6 -32 53 32 53 32 -7
80 c-3 44 -9 83 -13 87 -9 11 -1 79 9 73 4 -3 11 -54 15 -115 4 -60 11 -110
15 -110 5 0 32 14 60 32 l52 32 -7 86 c-4 47 -10 88 -14 92 -9 11 -1 79 9 73
5 -3 11 -49 15 -103 11 -142 8 -139 88 -91 61 37 68 43 63 67 -3 15 -8 58 -11
95 -6 64 -8 68 -28 63 -20 -5 -21 -4 -4 8 17 13 24 56 10 56 -5 -1 -33 -19
-63 -40z m-25 -80 c-10 -11 -21 -17 -24 -14 -3 3 3 12 13 20 28 20 32 17 11
-6z m-117 -82 c-2 -6 -13 -12 -24 -14 -19 -3 -19 -3 0 12 24 17 29 18 24 2z"/>
<path d="M4167 2810 c-2 -14 -8 -33 -12 -42 -5 -14 -2 -18 14 -18 12 0 21 4
21 8 0 5 12 14 26 21 26 12 26 12 8 33 -11 12 -13 18 -6 14 6 -4 12 -3 12 2 0
5 -13 9 -29 8 -23 -1 -30 -6 -34 -26z"/>
<path d="M6634 2785 c3 -22 6 -51 6 -65 0 -20 2 -22 10 -10 10 16 3 76 -12
100 -6 10 -8 2 -4 -25z"/>
<path d="M4447 2781 c-3 -13 -10 -20 -16 -16 -6 3 -9 11 -6 16 4 5 2 9 -3 9
-6 0 -12 -6 -15 -14 -4 -9 -14 -12 -26 -9 -13 3 -21 1 -21 -6 0 -7 4 -10 9 -6
5 3 12 1 15 -4 6 -10 79 -6 96 4 15 9 12 25 -4 25 -8 0 -16 6 -18 12 -3 7 -7
2 -11 -11z"/>
<path d="M6578 2781 c-16 -9 -28 -20 -28 -25 0 -5 3 -6 7 -3 10 11 33 -13 33
-34 0 -11 7 -19 16 -19 13 0 14 8 8 48 -3 26 -7 47 -8 48 0 0 -13 -6 -28 -15z"/>
<path d="M4300 2769 c0 -5 11 -8 25 -7 14 1 25 5 25 9 0 4 -11 7 -25 7 -14 0
-25 -4 -25 -9z"/>
<path d="M1670 2632 c0 -15 170 -186 177 -178 4 3 16 -3 28 -14 21 -20 22 -20
39 -1 20 22 14 61 -11 61 -24 0 -147 68 -192 107 -23 19 -41 30 -41 25z"/>
<path d="M5397 2603 c-4 -3 -7 -13 -7 -22 1 -13 3 -13 11 2 11 19 8 33 -4 20z"/>
<path d="M20 2580 c37 -12 180 -12 180 0 0 6 -40 10 -102 9 -67 -1 -94 -4 -78
-9z"/>
<path d="M220 2570 c0 -6 37 -10 93 -9 76 1 85 3 52 10 -56 11 -145 11 -145
-1z"/>
<path d="M5938 2533 c-57 -32 -65 -39 -59 -57 5 -12 11 -57 15 -101 4 -44 9
-94 12 -112 l6 -32 70 35 c64 32 69 37 64 62 -2 15 -7 59 -11 97 -8 98 -16
145 -23 145 -4 0 -37 -17 -74 -37z"/>
<path d="M7701 2538 c0 -7 4 -22 9 -33 7 -17 9 -15 9 13 1 17 -3 32 -9 32 -5
0 -10 -6 -9 -12z"/>
<path d="M1955 2510 c2 -14 7 -35 11 -47 4 -14 2 -23 -5 -23 -6 0 -11 -16 -11
-35 0 -25 6 -37 21 -46 19 -9 21 -17 15 -57 -4 -38 -2 -52 15 -72 l20 -25 -5
80 c-3 44 -6 89 -8 100 -1 11 2 35 6 54 8 31 7 33 -13 28 -11 -3 -24 0 -28 5
-4 7 -1 8 8 4 8 -4 5 0 -6 9 -11 9 -19 18 -17 21 2 2 1 10 -2 17 -3 6 -3 1 -1
-13z"/>
<path d="M2096 2521 c-3 -5 12 -21 34 -36 21 -15 40 -36 42 -46 2 -11 6 -20
11 -19 4 0 21 -7 38 -16 17 -8 33 -13 37 -10 3 3 0 6 -7 6 -7 0 -42 29 -79 65
-72 71 -69 69 -76 56z"/>
<path d="M5301 2502 c-13 -25 -14 -32 -2 -32 9 0 23 41 16 48 -2 2 -8 -5 -14
-16z"/>
<path d="M7653 2501 c-18 -15 -20 -24 -14 -47 9 -29 14 -24 24 21 5 19 5 19
12 -2 4 -13 11 -23 16 -23 13 0 11 34 -3 53 -12 15 -15 15 -35 -2z"/>
<path d="M2070 2472 c0 -11 12 -51 26 -88 62 -163 104 -351 104 -464 0 -52 5
-73 20 -92 10 -14 17 -28 14 -30 -3 -3 2 -8 10 -11 12 -5 14 4 9 56 -4 34 -5
73 -4 87 2 14 3 77 3 140 1 111 0 118 -34 191 -36 77 -119 212 -138 224 -5 3
-10 -3 -10 -13z"/>
<path d="M5460 2465 c7 -8 9 -15 4 -15 -5 0 -10 -24 -12 -52 -1 -29 -9 -66
-17 -82 -15 -28 -20 -76 -10 -76 3 0 19 10 35 22 27 19 30 28 30 73 0 87 -11
145 -28 145 -12 0 -12 -3 -2 -15z m10 -175 c0 -5 -4 -10 -10 -10 -5 0 -10 5
-10 10 0 6 5 10 10 10 6 0 10 -4 10 -10z"/>
<path d="M5798 2447 c-39 -22 -56 -37 -53 -47 2 -8 9 -52 14 -98 5 -45 14 -88
20 -95 8 -10 7 -17 -1 -25 -18 -18 -3 -14 57 15 55 27 56 29 51 63 -3 19 -8
77 -12 128 -3 50 -9 92 -13 91 -3 0 -32 -14 -63 -32z"/>
<path d="M4518 2453 c23 -2 59 -2 80 0 20 2 1 4 -43 4 -44 0 -61 -2 -37 -4z"/>
<path d="M7493 2439 c-36 -23 -44 -44 -14 -34 15 5 24 -2 37 -27 21 -42 21
-41 34 -33 7 5 4 18 -10 42 -15 25 -18 39 -11 46 13 13 14 27 4 27 -5 0 -23
-10 -40 -21z"/>
<path d="M7580 2445 c-11 -13 -10 -14 4 -9 11 4 16 1 16 -10 0 -9 5 -16 10
-16 6 0 10 11 10 25 0 28 -21 33 -40 10z"/>
<path d="M7241 2426 c-13 -14 -29 -22 -36 -19 -11 4 -11 -5 2 -44 16 -49 23
-53 89 -45 17 3 43 63 36 81 -5 11 -8 4 -12 -19 -4 -26 -10 -34 -23 -32 -9 2
-17 -2 -17 -8 0 -18 -29 -11 -40 11 -18 33 -5 66 31 73 17 3 28 10 24 16 -10
17 -30 11 -54 -14z"/>
<path d="M2041 2417 c-10 -18 -9 -30 4 -61 21 -50 34 -35 28 32 -6 57 -13 64
-32 29z"/>
<path d="M4975 2430 c3 -5 10 -10 16 -10 5 0 9 5 9 10 0 6 -7 10 -16 10 -8 0
-12 -4 -9 -10z"/>
<path d="M5332 2413 c2 -20 9 -29 26 -31 26 -4 28 5 6 36 -21 30 -36 28 -32
-5z"/>
<path d="M5668 2370 c-42 -28 -54 -40 -47 -51 5 -8 9 -35 9 -61 0 -26 5 -50
10 -53 6 -3 10 -18 10 -33 0 -50 13 -58 59 -37 l41 18 -6 86 c-4 47 -10 104
-13 127 l-6 40 -57 -36z"/>
<path d="M6948 2380 c-3 -19 0 -30 7 -30 7 0 10 11 7 30 -2 17 -5 30 -7 30 -2
0 -5 -13 -7 -30z"/>
<path d="M3710 2388 c0 -4 15 -8 33 -8 17 0 57 -3 87 -6 30 -4 52 -4 49 0 -9
10 -169 23 -169 14z"/>
<path d="M7570 2385 c0 -8 5 -15 10 -15 6 0 10 7 10 15 0 8 -4 15 -10 15 -5 0
-10 -7 -10 -15z"/>
<path d="M7250 2376 c0 -8 5 -18 10 -21 6 -3 10 3 10 14 0 12 -4 21 -10 21 -5
0 -10 -6 -10 -14z"/>
<path d="M7643 2368 c-27 -13 -41 -46 -51 -126 -10 -71 -3 -85 23 -45 16 24
19 25 30 10 12 -16 14 -16 36 1 20 17 23 28 23 93 1 67 -1 74 -19 76 -11 1
-30 -3 -42 -9z m13 -65 c8 -29 -6 -58 -27 -58 -18 0 -23 38 -9 64 15 28 28 26
36 -6z"/>
<path d="M3913 2363 c9 -2 25 -2 35 0 9 3 1 5 -18 5 -19 0 -27 -2 -17 -5z"/>
<path d="M4003 2353 c9 -2 23 -2 30 0 6 3 -1 5 -18 5 -16 0 -22 -2 -12 -5z"/>
<path d="M4088 2343 c6 -2 18 -2 25 0 6 3 1 5 -13 5 -14 0 -19 -2 -12 -5z"/>
<path d="M6817 2340 c12 -12 52 -16 55 -6 2 5 -12 10 -30 11 -19 2 -30 -1 -25
-5z"/>
<path d="M7137 2333 c5 -23 40 -60 48 -51 2 2 -9 20 -25 39 -23 27 -28 30 -23
12z"/>
<path d="M4188 2333 c7 -3 16 -2 19 1 4 3 -2 6 -13 5 -11 0 -14 -3 -6 -6z"/>
<path d="M4273 2323 c9 -2 23 -2 30 0 6 3 -1 5 -18 5 -16 0 -22 -2 -12 -5z"/>
<path d="M4301 2294 c-16 -21 -19 -30 -10 -41 10 -11 16 -7 36 22 13 19 26 35
28 35 13 0 1 -23 -42 -81 l-47 -64 3 -82 2 -81 -38 -44 c-52 -59 -50 -58 -121
-51 -62 6 -64 5 -100 -28 -33 -31 -32 -29 9 21 25 30 76 92 113 137 40 49 64
87 60 94 -4 7 -3 10 2 6 5 -3 22 12 37 34 16 21 24 39 19 39 -13 0 -96 -90
-186 -203 -43 -54 -81 -96 -83 -93 -3 3 4 18 16 35 24 33 12 53 -17 28 -49
-42 -75 -47 -270 -47 l-189 -1 -23 -67 c-13 -37 -32 -79 -42 -94 -17 -25 -17
-27 -1 -32 28 -8 197 -26 324 -35 103 -6 120 -10 146 -32 16 -13 45 -33 65
-44 34 -17 39 -18 55 -4 10 9 69 46 130 83 62 37 116 72 120 79 5 7 38 27 74
45 36 18 97 61 135 95 38 34 109 93 157 131 48 38 87 73 87 78 0 5 -5 6 -10 3
-6 -4 -30 5 -55 19 -24 14 -50 26 -57 26 -7 0 -46 -32 -87 -71 -41 -38 -78
-66 -82 -62 -4 4 -9 34 -11 67 l-3 59 -40 -42 c-60 -62 -65 -49 -6 15 50 54
52 59 50 110 -3 59 -9 64 -86 64 -33 0 -46 -5 -62 -26z m-41 -402 c0 -24 -1
-25 -16 -10 -10 9 -14 24 -10 33 9 23 26 9 26 -23z m10 -98 c0 -8 -10 -14 -23
-14 -30 0 -40 10 -27 26 13 15 50 6 50 -12z"/>
<path d="M5335 2310 c-3 -5 -1 -10 4 -10 6 0 11 5 11 10 0 6 -2 10 -4 10 -3 0
-8 -4 -11 -10z"/>
<path d="M5556 2295 c-22 -13 -43 -22 -48 -19 -4 3 -4 -5 1 -18 6 -13 13 -67
16 -120 6 -92 8 -97 26 -88 10 6 19 17 19 25 0 9 10 15 25 15 14 0 25 6 25 13
0 8 -7 14 -15 14 -8 0 -12 -4 -9 -9 3 -4 1 -8 -4 -8 -9 0 -22 46 -22 80 0 10
9 20 20 23 16 4 20 13 20 49 0 64 -8 70 -54 43z"/>
<path d="M6930 2275 c-38 -101 -75 -299 -89 -490 -16 -205 -22 -428 -11 -435
5 -3 12 -24 15 -45 5 -35 4 -38 -8 -22 -8 9 -17 17 -19 17 -3 0 -9 -62 -12
-137 -7 -137 -9 -158 -25 -283 -5 -36 -5 -69 -1 -74 5 -5 6 -15 3 -22 -3 -8 0
-14 6 -14 6 0 8 -7 5 -15 -4 -8 -1 -15 5 -15 7 0 9 -13 5 -39 -4 -27 -1 -46 9
-62 15 -22 20 -52 31 -169 3 -25 10 -68 16 -96 6 -28 12 -68 13 -89 2 -32 8
-42 35 -57 47 -26 91 -32 98 -13 6 14 8 14 24 0 10 -9 29 -16 42 -14 13 1 48
-1 79 -5 50 -7 59 -6 78 13 25 25 54 26 136 6 83 -20 95 -19 66 5 -12 11 -27
17 -32 14 -5 -3 -9 -1 -9 5 0 12 -68 36 -96 32 -34 -4 -74 17 -74 38 0 10 -13
72 -30 137 -16 65 -32 136 -35 157 -4 21 -11 51 -16 65 -6 15 -19 62 -29 106
-19 83 -15 109 20 120 8 3 3 4 -12 2 -16 -2 -29 3 -32 10 -3 9 2 14 15 14 11
0 17 5 14 10 -3 6 -1 10 5 10 14 0 28 -38 36 -102 3 -29 15 -68 25 -86 11 -18
19 -39 19 -46 0 -7 12 -23 26 -37 l26 -24 -7 35 c-4 19 -9 44 -11 55 -3 12 4
33 17 49 18 23 27 27 52 22 l29 -6 -6 48 c-10 64 -87 362 -95 362 -3 0 -12 4
-20 9 -13 8 -13 12 -1 26 12 14 12 18 -1 26 -11 7 -11 11 -1 17 7 5 10 16 6
25 -8 21 -7 21 -47 1 l-32 -15 24 19 c29 23 34 58 13 90 -8 12 -11 22 -7 22 4
0 3 6 -2 13 -6 6 -11 19 -11 27 0 8 -2 41 -3 73 -1 31 -7 57 -11 57 -5 0 -6 4
-3 10 7 12 -14 131 -26 144 -5 6 -9 18 -9 28 0 26 -25 22 -45 -8 -23 -35 -28
-25 -13 25 9 28 19 41 30 41 23 0 23 19 -2 105 -12 39 -29 105 -40 147 -49
194 -77 245 -100 183z m168 -920 c-3 -3 -9 2 -12 12 -6 14 -5 15 5 6 7 -7 10
-15 7 -18z m16 -31 c3 -8 2 -12 -4 -9 -6 3 -10 10 -10 16 0 14 7 11 14 -7z
m148 -419 c7 -33 -2 -76 -13 -69 -5 3 -7 10 -3 15 3 6 -4 21 -16 34 -21 22
-21 24 -3 34 26 15 30 14 35 -14z"/>
<path d="M5998 2244 c-27 -13 -48 -28 -48 -34 0 -5 -9 -11 -19 -15 -13 -4 -17
-12 -14 -25 5 -18 8 -17 66 7 78 33 78 33 69 65 l-7 26 -47 -24z"/>
<path d="M7543 2238 c-6 -18 -11 -50 -12 -72 0 -21 -3 -48 -7 -59 -6 -18 -10
-14 -30 26 -27 52 -33 55 -57 29 -20 -22 -21 -47 -6 -90 8 -23 7 -36 -2 -53
-11 -22 -13 -21 -25 26 -7 28 -17 63 -23 78 -6 16 -11 38 -11 51 0 12 -7 31
-15 42 -15 19 -15 19 -30 -1 -18 -23 -13 -57 17 -125 13 -28 20 -65 20 -97 -1
-29 3 -55 9 -58 5 -4 25 10 44 30 18 21 44 43 57 49 35 18 77 95 89 164 11 73
0 112 -18 60z"/>
<path d="M5422 2223 c-10 -4 -11 -28 -6 -106 4 -56 10 -109 15 -119 6 -11 4
-18 -6 -22 -12 -4 -15 4 -15 37 0 23 -3 59 -7 81 l-6 39 -24 -64 c-13 -35 -23
-79 -21 -96 2 -23 -3 -37 -16 -46 -18 -13 -18 -14 3 -20 15 -3 21 -13 21 -31
0 -14 -1 -26 -2 -26 -2 0 -21 7 -43 14 -29 11 -39 20 -37 33 1 10 5 36 8 58
l5 40 -20 -35 c-11 -19 -20 -29 -21 -22 0 6 -10 12 -22 13 -22 1 -22 1 2 8 30
8 39 37 13 44 -10 3 -3 5 15 6 28 1 32 5 33 29 1 15 3 51 4 80 3 47 1 52 -17
52 -16 0 -18 -3 -9 -14 9 -11 7 -15 -9 -19 -26 -7 -25 -22 3 -34 l22 -10 -22
-7 c-28 -9 -30 -26 -3 -33 42 -11 18 -24 -35 -19 -52 4 -76 -7 -37 -17 11 -3
7 -5 -10 -6 -17 -1 -29 -8 -33 -21 -4 -14 -15 -20 -36 -20 -30 0 -39 -14 -16
-24 6 -3 2 -3 -10 0 -25 6 -30 -5 -11 -24 16 -16 -4 -37 -26 -29 -13 5 -11 15
10 68 14 34 36 84 50 112 13 28 22 52 19 55 -2 2 -14 -17 -27 -42 -17 -35 -24
-43 -28 -30 -5 14 -10 11 -30 -16 -29 -41 -160 -272 -160 -282 0 -11 65 -10
109 1 101 27 213 51 235 51 16 0 30 -8 37 -21 10 -19 6 -26 -31 -59 -24 -21
-49 -36 -55 -34 -7 3 -15 -2 -18 -10 -4 -9 -16 -16 -27 -16 -11 0 -23 -7 -26
-15 -4 -8 -14 -15 -24 -15 -10 0 -31 -5 -47 -12 -33 -13 -30 -12 -67 -23 -29
-8 -56 -54 -56 -95 0 -20 39 -45 50 -31 3 3 12 7 20 8 8 1 47 13 87 27 118 43
245 77 272 74 17 -2 27 -11 32 -31 7 -25 3 -30 -32 -52 -21 -14 -43 -25 -49
-25 -6 0 -32 -11 -58 -25 -39 -20 -85 -40 -112 -48 -34 -10 -240 -162 -240
-176 1 -20 23 -35 55 -38 29 -2 45 4 76 29 35 28 45 31 101 29 35 -1 77 -4 95
-7 20 -4 44 0 64 10 44 22 48 21 65 -19 17 -40 8 -67 -28 -86 -20 -11 -132
-29 -273 -45 -27 -3 -73 -17 -102 -30 -28 -13 -57 -24 -63 -24 -20 0 -60 -48
-54 -64 5 -13 -2 -16 -36 -16 -29 0 -40 -4 -38 -12 3 -7 13 -14 24 -14 10 -1
28 -3 39 -5 11 -2 37 3 59 10 25 9 71 12 132 9 84 -3 95 -2 100 14 3 10 3 22
0 27 -4 5 2 12 11 14 17 4 17 5 1 6 -23 1 -23 27 -1 35 11 4 22 1 29 -8 6 -9
15 -12 20 -8 5 4 1 -2 -9 -14 -32 -38 7 -96 41 -62 17 17 15 47 -3 54 -8 4
-15 11 -15 17 0 7 4 7 12 -1 7 -7 20 -12 29 -12 10 0 20 -6 22 -12 3 -8 6 -6
6 4 1 12 6 15 19 11 14 -6 15 -4 4 9 -7 9 -9 19 -4 22 12 7 36 -49 28 -63 -3
-5 -20 -12 -36 -16 -69 -15 -25 -20 183 -20 251 0 280 -6 323 -62 21 -28 28
-49 29 -88 3 -68 9 -77 50 -69 19 3 35 1 39 -5 5 -7 -6 -11 -32 -11 -47 0 -57
-8 -34 -27 9 -8 11 -11 3 -7 -10 5 -11 1 -5 -17 4 -13 7 -29 7 -36 0 -6 11
-14 23 -17 25 -7 108 3 100 12 -3 2 -1 12 3 21 5 9 12 41 15 71 16 142 20 154
44 139 16 -10 23 -8 41 10 31 31 85 52 132 53 44 0 56 10 34 28 -11 10 -13 25
-9 69 4 31 10 60 15 66 5 5 9 21 9 36 0 24 6 30 48 43 53 18 117 54 109 62 -3
3 -17 -2 -31 -11 -14 -9 -31 -15 -37 -13 -6 2 8 16 31 32 23 15 40 30 37 32
-9 9 -61 -23 -90 -55 -29 -33 -53 -42 -43 -16 10 28 -5 15 -86 -70 -99 -105
-125 -102 -50 5 9 14 -11 -4 -46 -40 l-64 -65 6 40 c4 27 16 50 40 74 46 46
54 36 15 -20 l-31 -44 45 50 c26 28 46 55 47 60 0 6 14 25 30 43 17 18 30 40
30 48 0 23 -8 17 -35 -26 -27 -42 -45 -49 -65 -25 -7 8 -21 15 -31 15 -11 0
-19 6 -19 14 0 8 -4 16 -9 18 -5 2 -4 55 0 123 7 88 13 122 24 128 8 4 15 13
15 18 0 6 -4 7 -10 4 -6 -3 -7 1 -4 9 3 9 10 13 15 10 13 -7 11 10 -2 23 -8 8
-8 13 0 17 6 4 11 1 11 -6 0 -8 5 -6 11 5 6 10 8 21 5 24 -3 4 -6 1 -6 -5 0
-6 -7 -9 -16 -5 -14 5 -12 8 7 19 20 11 21 13 6 14 -43 0 -57 -18 -57 -78 l0
-57 -21 25 -20 25 5 -180 c2 -99 2 -165 -1 -147 -3 25 -8 32 -20 28 -8 -3 -31
-7 -51 -7 -20 -1 -29 -3 -19 -6 12 -3 17 -15 17 -39 0 -28 -4 -34 -21 -34 -12
0 -39 -5 -60 -12 -50 -15 -59 -5 -23 26 16 13 31 20 32 15 7 -17 20 -9 24 16
3 14 1 25 -3 25 -5 0 -8 8 -7 18 1 9 0 28 0 41 -2 20 -5 22 -29 16 -16 -4 -44
-11 -63 -16 l-34 -8 33 26 c46 36 59 74 53 156 l-4 68 -42 -5 -41 -6 40 13
c36 12 40 16 37 42 -20 232 -21 258 -8 244 2 -2 9 -62 16 -134 7 -71 13 -131
14 -132 3 -4 111 29 119 37 5 4 3 66 -3 138 -7 72 -10 136 -7 144 5 15 14 -31
22 -125 4 -38 9 -67 11 -64 7 6 -8 184 -16 198 -6 9 -40 0 -132 -36 -184 -71
-218 -86 -218 -98 0 -14 24 -81 31 -87 3 -3 11 -14 18 -25 10 -16 11 -6 7 58
-4 48 -2 77 4 77 6 0 10 -12 11 -27 0 -16 4 -69 7 -119 5 -70 4 -94 -6 -104
-7 -6 -16 -9 -20 -5 -4 4 -1 10 6 12 7 3 12 20 11 41 l-1 37 -16 -37 c-12 -26
-24 -37 -44 -40 -31 -5 -37 9 -39 87 0 28 -4 59 -8 70 -5 11 -7 -14 -5 -60 3
-66 2 -73 -6 -40 -12 56 -13 155 0 135 7 -10 10 -11 10 -2 0 7 -6 15 -14 18
-10 4 -16 35 -20 112 -4 59 -10 116 -13 126 -4 14 -1 18 11 13 9 -4 16 -2 16
3 0 12 -23 13 -35 1 -6 -5 -21 -12 -35 -16 -20 -5 -19 -3 9 15 34 21 34 21 26
78 -4 31 -7 72 -6 90 1 27 -3 32 -22 32 -13 0 -27 4 -32 9 -6 5 -16 6 -23 4z
m64 -139 c-30 -21 -45 -16 -16 6 14 10 27 16 30 13 3 -2 -4 -11 -14 -19z
m-424 -76 c-7 -7 -12 -8 -12 -2 0 14 12 26 19 19 2 -3 -1 -11 -7 -17z m368
-75 c0 -16 3 -53 6 -83 5 -38 3 -52 -4 -45 -12 12 -21 155 -10 155 4 0 8 -12
8 -27z m-385 -73 c3 -5 2 -10 -4 -10 -5 0 -13 5 -16 10 -3 6 -2 10 4 10 5 0
13 -4 16 -10z m388 -447 c-13 -2 -33 -2 -45 0 -13 2 -3 4 22 4 25 0 35 -2 23
-4z m-83 -37 c0 -14 -5 -28 -10 -31 -13 -8 -24 20 -16 40 9 24 26 17 26 -9z
m156 -43 c-10 -10 -19 5 -10 18 6 11 8 11 12 0 2 -7 1 -15 -2 -18z m233 -160
c-9 -17 -15 -20 -21 -11 -12 20 -9 66 5 71 19 6 30 -34 16 -60z m-284 -42 c-3
-6 -23 -11 -43 -10 l-37 1 40 13 c43 13 51 12 40 -4z m178 -11 c-12 -5 -68
-11 -125 -14 l-103 -5 90 10 c49 5 94 11 100 13 5 3 21 4 35 5 24 0 24 0 3 -9z
m-272 -30 c9 -70 -7 -86 -48 -48 -28 26 -29 38 -4 38 11 0 23 5 26 10 3 6 10
10 16 10 5 0 10 -4 10 -10z m451 -22 c-5 -31 -6 -31 -117 -47 -152 -22 -195
-23 -195 -7 0 8 5 18 10 21 15 9 12 25 -5 25 -34 0 -12 20 23 21 20 1 84 5
142 8 154 11 147 12 142 -21z m-402 -36 c0 -9 -5 -24 -10 -32 -8 -11 -10 -6
-8 22 2 35 18 44 18 10z"/>
<path d="M5698 1072 c-10 -2 -18 -11 -18 -21 0 -15 7 -17 53 -13 61 5 59 4 51
26 -6 16 -36 19 -86 8z"/>
<path d="M74 2186 c-4 -11 -15 -16 -33 -14 -20 2 -27 -2 -29 -19 -3 -20 1 -23
32 -23 30 0 35 4 41 31 8 33 -1 52 -11 25z"/>
<path d="M5820 2167 c-19 -7 -44 -18 -55 -25 -18 -10 -18 -11 -2 -12 18 0 97
36 97 45 0 6 2 7 -40 -8z"/>
<path d="M5846 2139 c-22 -16 -46 -29 -54 -29 -13 0 -14 -15 -8 -92 4 -51 12
-95 18 -99 7 -4 6 -8 -3 -11 -7 -2 -10 -11 -6 -21 6 -16 10 -15 59 4 29 11 57
24 61 28 9 9 -11 232 -22 243 -3 4 -24 -6 -45 -23z"/>
<path d="M6540 2158 c-54 -15 -102 -69 -70 -80 5 -1 10 -40 11 -85 3 -80 3
-82 22 -66 16 15 18 29 15 98 l-3 80 31 3 c21 2 34 10 37 21 8 30 -5 39 -43
29z"/>
<path d="M7575 2130 c-9 -41 1 -50 16 -16 9 19 9 30 2 37 -8 8 -13 2 -18 -21z"/>
<path d="M4780 2122 c0 -4 -26 -27 -58 -50 -63 -45 -122 -102 -106 -102 5 0
27 12 49 25 46 28 73 31 89 10 12 -15 31 -5 51 27 6 9 25 35 43 57 32 39 33
41 11 41 -12 0 -31 -7 -41 -17 -17 -15 -18 -15 -18 0 0 10 -4 17 -10 17 -5 0
-10 -3 -10 -8z"/>
<path d="M5710 2104 c-23 -13 -24 -14 -4 -14 12 0 27 7 34 15 15 18 4 18 -30
-1z"/>
<path d="M6137 2104 c-16 -9 -26 -18 -23 -21 3 -3 20 4 38 16 38 24 27 28 -15
5z"/>
<path d="M7616 2101 c-13 -21 5 -31 55 -31 27 0 49 5 49 10 0 6 -17 10 -38 10
-21 0 -43 5 -49 11 -8 8 -13 8 -17 0z"/>
<path d="M5701 2057 l-53 -30 6 -76 c4 -42 9 -77 11 -80 9 -8 97 31 102 46 3
8 2 49 -3 92 l-9 79 -54 -31z"/>
<path d="M6333 2059 c0 -29 1 -30 14 -13 14 20 13 36 -3 41 -6 2 -11 -11 -11
-28z"/>
<path d="M6421 2077 c-10 -12 -10 -28 -1 -74 8 -41 8 -66 1 -85 -16 -43 -33
-34 -29 15 3 45 -13 63 -24 25 -3 -13 -6 -42 -7 -65 -1 -32 3 -43 14 -43 20 0
53 34 65 66 11 29 12 130 1 157 -6 17 -8 17 -20 4z"/>
<path d="M6566 2063 l-30 -16 28 -14 c31 -16 56 -4 56 28 0 23 -15 23 -54 2z"/>
<path d="M6050 2060 c-13 -8 -13 -10 2 -10 9 0 20 5 23 10 8 13 -5 13 -25 0z"/>
<path d="M6270 2054 c0 -10 7 -25 15 -35 14 -15 14 -18 -1 -33 -20 -21 -11
-34 11 -16 22 18 16 94 -8 98 -11 2 -17 -3 -17 -14z"/>
<path d="M6226 2038 c-9 -12 -19 -19 -22 -15 -4 4 -14 -3 -22 -15 -12 -16 -12
-23 -4 -26 7 -2 12 -15 12 -29 l0 -26 25 27 c14 15 25 34 25 42 0 8 5 12 10 9
6 -3 10 5 10 19 0 34 -16 41 -34 14z m-12 -53 c3 -8 1 -15 -3 -15 -5 0 -11 7
-15 15 -3 8 -1 15 3 15 5 0 11 -7 15 -15z"/>
<path d="M6374 2049 c-3 -6 -1 -16 5 -22 8 -8 11 -5 11 11 0 24 -5 28 -16 11z"/>
<path d="M5985 2030 c-3 -6 1 -7 9 -4 18 7 21 14 7 14 -6 0 -13 -4 -16 -10z"/>
<path d="M6105 2027 c-4 -9 -13 -13 -22 -10 -12 5 -14 1 -9 -14 4 -11 2 -31
-3 -45 -8 -21 -6 -24 15 -26 24 -2 54 30 54 58 -1 9 -6 5 -15 -10 l-14 -25 -1
27 c0 14 6 28 13 31 9 4 9 7 0 17 -10 11 -13 10 -18 -3z m-8 -69 c-3 -8 -6 -5
-6 6 -1 11 2 17 5 13 3 -3 4 -12 1 -19z"/>
<path d="M5583 2001 l-43 -15 1 -66 c0 -62 15 -174 18 -137 1 13 6 17 20 12
10 -3 30 -1 44 4 26 10 26 12 20 78 -3 37 -8 84 -12 104 l-6 36 -42 -16z"/>
<path d="M6333 2004 c-7 -7 -13 -29 -13 -49 0 -20 -12 -66 -26 -102 -30 -75
-24 -94 25 -69 17 9 31 23 31 32 0 12 -4 13 -20 4 -25 -13 -25 -8 -1 55 35 94
37 166 4 129z"/>
<path d="M7675 1970 c-3 -5 -1 -10 4 -10 6 0 11 5 11 10 0 6 -2 10 -4 10 -3 0
-8 -4 -11 -10z"/>
<path d="M6243 1930 c-26 -27 -78 -125 -87 -164 -6 -25 -5 -28 13 -23 16 4 21
0 21 -13 0 -67 155 -5 233 93 55 68 51 69 -15 3 -35 -34 -79 -70 -100 -79 -43
-20 -91 -22 -106 -4 -12 15 -5 58 12 69 15 10 27 10 24 -1 -2 -5 2 -11 7 -12
13 -5 45 59 45 92 0 14 -6 33 -13 43 -13 18 -15 18 -34 -4z m17 -50 c0 -10 -9
-24 -20 -30 -23 -12 -24 -10 -8 25 13 30 28 33 28 5z"/>
<path d="M4684 1869 c-27 -38 -61 -85 -76 -103 -31 -38 -34 -49 -15 -65 20
-16 41 4 75 69 25 49 32 55 62 58 43 4 58 16 23 19 -35 2 -43 19 -26 55 28 54
7 39 -43 -33z"/>
<path d="M7414 1904 c-88 -53 -114 -81 -110 -118 2 -17 -1 -41 -7 -53 -9 -21
-2 -82 20 -158 5 -17 4 -18 -11 -6 -9 7 -19 31 -22 52 -4 20 -16 53 -28 72
-21 34 -103 113 -110 106 -9 -10 113 -562 128 -578 9 -10 16 -29 16 -43 0 -15
14 -40 33 -60 17 -19 48 -60 67 -91 37 -59 49 -69 51 -39 0 10 3 12 6 5 8 -21
42 -15 68 12 l23 26 16 -23 c20 -28 20 -57 0 -119 -13 -39 -14 -52 -4 -64 16
-20 74 -19 105 1 14 9 33 13 45 9 20 -6 20 -3 20 136 0 116 -2 140 -12 127
-32 -39 -97 -88 -111 -82 -33 12 -25 52 23 127 27 39 60 83 74 96 21 20 26 34
26 72 0 46 -1 48 -34 57 -18 6 -44 8 -58 5 -15 -3 -29 2 -37 11 -8 9 -22 16
-33 16 -23 0 -98 -40 -98 -52 0 -14 27 -8 53 12 30 24 47 26 47 4 0 -23 -68
-48 -97 -35 -31 14 -29 24 10 60 23 23 28 31 15 31 -9 0 -20 -4 -23 -10 -8
-13 -62 -13 -70 1 -4 6 3 21 16 35 16 17 20 27 12 35 -8 8 -13 8 -17 0 -13
-20 -34 -11 -39 17 -4 18 -1 31 10 39 22 17 9 45 -19 41 -46 -6 -28 72 30 135
14 15 21 27 15 27 -6 0 -24 -15 -41 -34 l-30 -34 0 33 c0 25 4 32 15 28 12 -5
13 1 8 30 -4 21 -3 37 4 41 7 5 11 -2 11 -18 0 -27 6 -31 28 -17 8 5 11 19 7
39 -3 18 0 34 6 38 16 9 30 -18 17 -33 -8 -10 -7 -13 5 -13 8 0 20 7 28 16 10
13 10 19 0 36 -11 17 -10 22 1 29 10 7 10 9 -3 9 -9 0 -22 -7 -29 -15 -7 -8
-17 -15 -22 -15 -5 0 -30 -17 -56 -37 -43 -36 -49 -31 -13 10 9 11 46 37 83
58 38 22 68 42 68 44 0 11 -20 3 -76 -31z"/>
<path d="M4103 1923 c9 -2 23 -2 30 0 6 3 -1 5 -18 5 -16 0 -22 -2 -12 -5z"/>
<path d="M5703 1870 c-24 -11 -43 -26 -43 -35 0 -20 7 -19 69 6 28 12 51 28
51 35 0 19 -26 16 -77 -6z"/>
<path d="M6053 1852 c-15 -26 -24 -63 -27 -117 -6 -77 -6 -79 9 -47 9 20 22
32 34 32 33 0 130 138 115 162 -7 10 -54 -49 -54 -67 0 -6 -7 -20 -15 -31 -15
-18 -15 -16 -9 26 6 41 5 43 -10 30 -10 -7 -26 -30 -37 -49 -14 -26 -18 -29
-13 -11 3 14 15 40 26 59 10 19 15 38 10 43 -4 4 -18 -8 -29 -30z"/>
<path d="M2031 1840 c0 -19 4 -42 9 -50 7 -11 10 -8 9 15 0 17 -4 39 -9 50 -7
16 -9 14 -9 -15z"/>
<path d="M6439 1803 c-13 -16 -12 -17 4 -4 9 7 17 15 17 17 0 8 -8 3 -21 -13z"/>
<path d="M7477 1793 c-4 -3 -7 -11 -7 -17 0 -6 5 -5 12 2 6 6 9 14 7 17 -3 3
-9 2 -12 -2z"/>
<path d="M6402 1764 c-7 -8 -8 -14 -3 -14 10 0 25 19 20 25 -2 1 -10 -3 -17
-11z"/>
<path d="M6420 1735 c-7 -8 -9 -15 -4 -16 5 0 27 -2 50 -3 51 -4 65 -12 58
-34 -5 -16 -5 -16 9 1 8 9 20 17 26 17 25 0 -1 20 -37 29 -83 20 -90 21 -102
6z"/>
<path d="M2433 1707 c-44 -17 -47 -21 -33 -61 13 -42 22 -43 75 -16 22 12 59
23 83 27 46 6 60 33 17 33 -14 0 -42 7 -62 15 -41 17 -38 17 -80 2z"/>
<path d="M31 1674 c0 -11 3 -14 6 -6 3 7 2 16 -1 19 -3 4 -6 -2 -5 -13z"/>
<path d="M6578 1658 c-2 -18 -9 -22 -28 -20 -14 1 -32 5 -40 9 -41 17 -130 27
-130 14 0 -14 7 -16 83 -31 34 -7 66 -20 75 -31 9 -10 22 -19 29 -19 17 0 33
33 33 69 0 36 -17 42 -22 9z"/>
<path d="M6265 1660 c-3 -5 -2 -10 4 -10 5 0 13 5 16 10 3 6 2 10 -4 10 -5 0
-13 -4 -16 -10z"/>
<path d="M6213 1652 c-13 -2 -23 -8 -23 -13 0 -11 17 -11 44 0 24 9 9 18 -21
13z"/>
<path d="M11 1606 c-7 -28 -11 -140 -10 -293 1 -247 1 -247 15 -161 7 48 22
126 34 173 20 86 25 160 14 201 -4 16 -11 20 -26 16 -20 -5 -21 -2 -14 51 3
32 4 57 2 57 -2 0 -9 -20 -15 -44z"/>
<path d="M2071 1634 c0 -11 3 -14 6 -6 3 7 2 16 -1 19 -3 4 -6 -2 -5 -13z"/>
<path d="M6330 1614 c-8 -3 -22 -8 -30 -11 -8 -4 -19 -7 -25 -7 -12 -1 -31
-73 -22 -83 4 -3 13 2 20 12 8 10 20 16 28 13 8 -3 22 8 32 24 21 35 48 34 57
-2 4 -14 10 -59 14 -101 6 -74 6 -78 -21 -109 -23 -28 -24 -31 -5 -19 23 15
52 66 52 93 0 9 7 16 15 16 18 0 49 45 42 62 -4 9 -6 7 -6 -4 -1 -17 -27 -48
-40 -48 -10 0 -32 71 -25 82 8 12 38 10 54 -4 12 -11 12 -10 1 5 -7 9 -26 17
-41 17 -22 0 -29 6 -36 33 -10 32 -31 42 -64 31z"/>
<path d="M5936 1585 c-8 -8 -18 -24 -21 -36 -4 -11 -9 -19 -11 -16 -3 2 0 15
5 29 l9 25 -53 -15 c-47 -13 -53 -17 -45 -33 6 -10 10 -37 10 -62 0 -24 3 -47
7 -50 11 -12 53 35 53 60 0 20 2 22 14 11 8 -7 12 -22 9 -33 -2 -11 -4 -24 -4
-30 1 -25 9 -151 10 -158 1 -7 49 -2 58 7 3 3 0 68 -7 145 -7 77 -10 147 -7
155 8 20 -7 21 -27 1z"/>
<path d="M2095 1535 c3 -22 5 -57 5 -78 0 -23 4 -36 10 -32 15 9 11 86 -6 120
l-14 30 5 -40z"/>
<path d="M7390 1520 c-13 -24 4 -37 25 -20 19 16 19 26 0 34 -8 3 -19 -3 -25
-14z"/>
<path d="M7436 1455 c-32 -49 -14 -60 31 -20 24 21 26 26 13 35 -22 14 -26 13
-44 -15z"/>
<path d="M2440 1442 c0 -5 5 -47 11 -93 22 -174 88 -265 95 -129 1 25 5 54 7
65 3 11 6 35 6 53 1 17 9 40 19 49 16 17 15 19 -28 40 -44 23 -110 31 -110 15z"/>
<path d="M6225 1440 c-3 -5 -1 -10 4 -10 6 0 11 -16 11 -35 0 -37 -24 -50 -34
-17 -3 10 -4 6 -3 -8 1 -17 8 -25 20 -25 10 0 23 -8 28 -18 6 -10 21 -17 37
-16 26 0 26 1 4 9 -25 11 -28 16 -37 83 -6 45 -17 58 -30 37z"/>
<path d="M6174 1193 c-9 -16 -25 -40 -36 -55 -29 -43 -16 -33 36 27 30 35 42
55 32 55 -9 0 -23 -12 -32 -27z"/>
<path d="M2092 1185 c0 -16 2 -22 5 -12 2 9 2 23 0 30 -3 6 -5 -1 -5 -18z"/>
<path d="M2025 1159 c-10 -43 -1 -46 12 -4 6 19 7 35 3 35 -5 0 -11 -14 -15
-31z"/>
<path d="M2433 1135 c-20 -22 -16 -27 20 -23 20 2 32 8 32 18 0 20 -37 24 -52
5z"/>
<path d="M1815 1047 c-79 -38 -344 -187 -428 -241 -31 -20 -63 -36 -72 -36 -9
0 -35 -18 -58 -41 -23 -22 -69 -55 -102 -74 -77 -44 -95 -59 -95 -76 0 -31
105 -209 123 -209 4 0 7 9 7 20 0 31 44 123 71 147 13 12 55 48 94 80 38 32
131 117 205 190 163 159 177 171 263 218 37 20 67 41 67 46 0 12 3 13 -75 -24z"/>
<path d="M4045 954 c-54 -10 -132 -40 -145 -55 -6 -7 -68 -20 -120 -25 -106
-10 -200 -36 -200 -56 0 -5 -8 -8 -19 -8 -10 0 -32 -7 -47 -15 -16 -8 -37 -15
-46 -15 -9 0 -30 -5 -45 -11 -60 -24 -69 -28 -93 -34 -82 -20 -135 -37 -145
-45 -6 -5 -29 -13 -50 -19 -22 -5 -65 -16 -96 -24 -31 -7 -76 -23 -100 -35
-24 -12 -60 -24 -79 -27 -73 -13 -126 -28 -158 -46 -18 -11 -44 -19 -58 -19
-14 0 -35 -5 -46 -11 -35 -19 -78 -29 -75 -17 4 20 -22 19 -41 0 -11 -11 -51
-30 -89 -42 -37 -12 -76 -26 -85 -31 -10 -5 -26 -9 -37 -9 -10 0 -37 -6 -59
-14 -22 -8 -53 -17 -69 -20 -31 -6 -118 -28 -203 -51 -30 -9 -64 -17 -75 -18
-11 -1 -26 -6 -33 -11 -7 -4 -16 -6 -19 -3 -3 3 -21 -3 -41 -13 -21 -11 -76
-29 -124 -42 -82 -20 -105 -36 -78 -53 6 -4 8 -31 5 -68 -7 -71 8 -110 42
-115 17 -2 24 3 27 20 6 26 15 102 16 133 0 11 5 27 10 35 20 30 27 -9 13 -73
-7 -34 -13 -74 -13 -89 l0 -28 128 1 c70 0 121 3 115 6 -7 2 -13 11 -13 19 0
9 -4 13 -9 10 -4 -3 -17 2 -27 10 -10 9 -13 12 -5 8 9 -4 12 -2 9 6 -2 7 -15
15 -29 17 -19 2 -21 1 -9 -7 9 -6 10 -10 3 -10 -6 0 -18 6 -25 13 -7 8 -19 12
-26 9 -6 -2 -12 1 -12 6 0 16 -33 24 -42 10 -5 -9 -8 -7 -8 7 -1 20 -1 20 -15
1 -12 -16 -15 -17 -15 -4 0 8 7 21 15 28 9 7 13 15 10 18 -2 3 3 11 13 18 10
8 12 13 5 14 -7 0 -13 6 -13 13 0 8 6 14 13 14 6 0 80 21 162 46 183 54 228
63 242 45 18 -23 23 -63 12 -99 -14 -48 -16 -55 -24 -131 l-7 -68 35 0 c22 0
37 6 41 15 6 16 0 165 -10 257 l-6 57 39 10 c22 6 53 13 69 17 l31 6 8 -94 c5
-51 9 -132 9 -180 1 -48 4 -80 8 -70 6 16 7 16 7 0 1 -16 16 -18 176 -18 l175
0 2 53 c1 28 2 75 3 102 1 42 12 109 41 243 5 26 41 31 51 7 6 -18 -10 -108
-38 -205 -10 -36 -24 -94 -32 -130 l-14 -65 585 -3 c322 -1 587 0 590 3 6 6
-27 84 -45 106 -7 8 -13 23 -13 32 0 11 -8 17 -23 17 -13 0 -27 3 -31 8 -4 4
-13 7 -19 7 -7 0 -13 11 -15 25 -6 53 -12 67 -36 78 -23 10 -27 8 -46 -23 -12
-19 -26 -35 -31 -35 -5 0 -9 -7 -9 -15 0 -9 -6 -18 -14 -21 -8 -3 -24 -28 -35
-55 -22 -50 -41 -64 -41 -29 0 18 -7 19 -135 17 -103 -1 -136 1 -140 11 -3 7
-8 75 -11 151 l-7 138 64 7 c57 7 67 12 102 48 21 22 49 63 62 92 l23 51 1
-52 c1 -29 6 -53 11 -53 6 0 10 10 10 23 0 38 13 45 85 48 l69 4 13 -65 c7
-35 11 -70 8 -77 -2 -8 -22 -13 -45 -13 -37 0 -41 -2 -38 -21 2 -12 10 -25 18
-29 8 -4 38 -19 66 -33 28 -15 54 -24 58 -20 3 3 6 -1 6 -9 0 -9 6 -18 14 -21
8 -3 52 -30 99 -61 46 -30 97 -58 113 -62 16 -3 54 -20 84 -36 l55 -29 -36 33
c-44 40 -66 78 -51 87 6 4 15 19 21 34 6 15 21 31 33 36 14 5 17 10 10 15 -7
4 -12 11 -12 15 0 18 39 18 96 0 35 -11 60 -14 62 -9 2 6 16 8 30 5 34 -7 26
-2 -83 43 -96 40 -95 38 -80 107 4 17 -6 24 -53 43 -31 12 -84 29 -118 38 -57
15 -61 18 -57 43 3 17 2 22 -5 13 -11 -16 -92 -9 -172 14 -30 9 -67 18 -82 21
-19 4 -28 11 -28 24 0 11 3 19 8 19 25 0 147 -42 171 -59 32 -23 64 -30 43 -9
-7 7 -12 21 -12 33 0 12 5 26 12 33 7 7 8 12 2 12 -6 0 -15 -5 -22 -12 -14
-14 -43 7 -36 27 6 15 -30 30 -47 20 -6 -4 -8 -18 -4 -32 6 -24 4 -25 -22 -19
-31 8 -93 47 -93 59 0 21 274 107 344 107 29 0 46 5 49 14 8 21 73 32 92 16
11 -9 32 -11 68 -6 28 4 81 8 117 9 47 1 64 6 62 15 -2 10 3 9 20 -2 25 -15
51 -15 208 3 223 25 224 33 3 37 -102 1 -183 8 -228 19 -76 17 -182 17 -280
-1z m-485 -274 c0 -13 -7 -20 -18 -20 -26 0 -34 11 -21 27 17 20 39 16 39 -7z
m-1200 -355 l-8 -40 -1 36 c0 20 2 39 6 42 11 11 11 4 3 -38z m1182 -277 c-7
-7 -12 -8 -12 -2 0 14 12 26 19 19 2 -3 -1 -11 -7 -17z"/>
<path d="M4889 846 c-2 -36 3 -166 7 -193 9 -48 38 -73 84 -73 29 0 40 4 40
15 0 8 -4 15 -10 15 -5 0 -10 11 -10 25 0 14 5 25 10 25 15 0 12 26 -5 40 -11
9 -13 16 -5 24 11 11 13 95 2 112 -10 15 -112 24 -113 10z"/>
<path d="M5116 851 c-4 -6 -2 -28 4 -50 5 -21 8 -46 4 -54 -4 -12 2 -11 35 5
40 20 40 20 23 44 -9 13 -20 24 -24 24 -5 0 -8 5 -8 11 0 8 4 8 14 -1 8 -6 23
-10 34 -8 12 2 29 -9 47 -30 21 -25 28 -44 29 -82 1 -46 -1 -51 -27 -60 -25
-8 -29 -6 -39 18 -6 15 -11 30 -10 35 1 4 -7 7 -18 7 -17 0 -19 -3 -8 -19 7
-11 14 -18 18 -16 3 2 6 -8 6 -21 1 -15 -3 -23 -10 -21 -6 2 -11 8 -11 13 0
17 -16 34 -27 28 -7 -4 -6 -9 2 -14 6 -4 13 -24 14 -46 4 -39 4 -39 -9 -10
-10 24 -13 26 -19 11 -8 -22 12 -48 32 -40 8 3 22 -1 31 -9 21 -18 118 -27
131 -11 5 6 7 14 4 18 -3 3 12 -4 34 -14 44 -22 152 -38 152 -22 0 5 -15 7
-33 5 -24 -3 -34 0 -34 10 0 14 22 17 42 7 6 -3 16 -4 23 -3 6 1 17 2 22 3 13
1 13 31 -1 31 -5 0 -7 -6 -4 -12 4 -7 1 -6 -7 2 -7 9 -24 21 -38 28 -17 8 -19
11 -5 7 41 -9 156 -8 167 3 12 12 15 120 5 174 -9 42 -29 51 -121 47 -31 -1
-59 0 -62 4 -4 3 -21 -4 -38 -17 -17 -13 -46 -26 -64 -28 -29 -4 -32 -2 -30
16 3 17 -2 21 -24 18 -16 -1 -28 1 -28 6 0 5 -24 9 -52 9 -29 0 -67 3 -85 7
-18 4 -34 3 -37 -3z m334 -61 c0 -5 -5 -10 -11 -10 -5 0 -7 5 -4 10 3 6 8 10
11 10 2 0 4 -4 4 -10z m-115 -9 c3 -5 1 -12 -5 -16 -5 -3 -10 1 -10 9 0 18 6
21 15 7z m90 -11 c19 -8 19 -9 -2 -9 -12 -1 -25 4 -28 9 -7 12 2 12 30 0z
m-45 -10 c0 -5 -5 -10 -11 -10 -5 0 -7 5 -4 10 3 6 8 10 11 10 2 0 4 -4 4 -10z
m-78 -42 c-7 -7 -12 -8 -12 -2 0 14 12 26 19 19 2 -3 -1 -11 -7 -17z m283 -8
c-3 -5 -16 -10 -28 -9 -21 0 -21 1 -2 9 28 12 37 12 30 0z m-118 -46 c-3 -3
-12 -4 -19 -1 -8 3 -5 6 6 6 11 1 17 -2 13 -5z m-57 -19 c-14 -8 -34 -14 -45
-14 -15 1 -13 4 10 14 40 19 67 18 35 0z m-94 -52 c-4 -4 -11 -1 -16 7 -16 25
-11 35 7 17 9 -9 13 -20 9 -24z"/>
<path d="M4590 840 c-58 -4 -154 -8 -213 -9 l-108 -1 3 -87 c3 -80 5 -88 23
-89 11 -1 41 -4 65 -7 119 -18 182 -20 190 -7 7 11 14 10 34 -4 15 -9 56 -20
92 -23 57 -5 69 -3 95 16 16 12 29 17 29 11 0 -5 -4 -10 -9 -10 -5 0 -11 -7
-15 -15 -4 -10 1 -15 15 -15 20 0 20 5 17 117 l-4 118 -29 6 c-36 8 -49 8
-185 -1z m-18 -34 c16 -11 16 -15 2 -34 -8 -12 -18 -22 -22 -22 -13 0 -32 39
-26 55 7 18 23 19 46 1z m-92 -127 c0 -6 -4 -7 -10 -4 -5 3 -10 11 -10 16 0 6
5 7 10 4 6 -3 10 -11 10 -16z"/>
<path d="M3861 788 c0 -31 3 -37 8 -24 7 18 3 66 -5 66 -2 0 -4 -19 -3 -42z"/>
<path d="M4125 820 c-3 -5 -1 -10 4 -10 6 0 11 5 11 10 0 6 -2 10 -4 10 -3 0
-8 -4 -11 -10z"/>
<path d="M4180 757 c0 -73 10 -97 38 -97 12 0 14 12 8 68 -4 37 -8 75 -8 85 1
10 -7 17 -19 17 -17 0 -19 -7 -19 -73z"/>
<path d="M3911 760 l2 -59 41 -5 c109 -14 106 -14 106 8 0 12 4 28 9 36 7 10
0 23 -27 47 -30 26 -45 32 -85 33 l-47 0 1 -60z"/>
<path d="M4121 716 c-9 -23 -9 -31 1 -37 14 -9 23 18 15 49 -3 13 -7 10 -16
-12z"/>
<path d="M7200 663 c0 -13 5 -23 10 -23 13 0 13 11 0 30 -8 12 -10 11 -10 -7z"/>
<path d="M3907 628 c-3 -24 -3 -46 1 -50 4 -3 34 -13 67 -22 60 -16 60 -16
112 12 64 33 70 57 16 65 -21 3 -69 13 -108 22 -38 8 -73 15 -76 15 -4 0 -9
-19 -12 -42z"/>
<path d="M6138 628 c-12 -35 23 -71 46 -48 7 7 7 11 1 10 -24 -5 -35 1 -35 20
0 11 7 20 16 20 8 0 12 -4 9 -10 -3 -5 -1 -10 5 -10 7 0 10 6 8 13 -6 17 -45
21 -50 5z"/>
<path d="M6216 607 c-5 -15 -6 -31 -2 -34 11 -11 18 5 14 34 l-4 28 -8 -28z"/>
<path d="M7240 615 c0 -8 6 -15 14 -15 7 0 19 -7 26 -15 10 -12 10 -18 0 -30
-7 -8 -9 -15 -4 -15 4 0 3 -5 -4 -12 -12 -12 -6 -96 9 -113 5 -5 9 -16 9 -24
0 -8 7 -23 17 -33 15 -16 15 -18 0 -18 -9 0 -21 8 -26 18 -6 9 -10 13 -10 7
-1 -22 37 -57 65 -60 16 -1 44 -6 62 -10 26 -6 32 -4 32 9 0 9 -6 16 -12 16
-9 0 -8 3 2 10 13 8 13 11 0 24 -25 23 -60 30 -60 11 0 -8 10 -20 23 -25 20
-8 19 -9 -10 -9 -32 -1 -33 0 -33 44 l0 45 20 -20 c30 -30 54 -27 45 7 -3 15
-12 31 -18 35 -9 6 -8 11 3 17 12 8 9 12 -11 20 -15 5 -36 22 -48 38 -22 28
-22 28 -16 3 6 -24 5 -24 -9 -6 -17 21 -22 51 -7 42 5 -3 8 8 7 25 -1 16 -8
34 -16 39 -23 15 -50 12 -50 -5z"/>
<path d="M4193 562 c2 -31 9 -58 16 -60 6 -2 11 5 11 15 0 10 3 34 6 54 5 31
3 37 -16 42 -20 5 -21 3 -17 -51z"/>
<path d="M6263 598 c-7 -8 -8 -19 -3 -28 8 -12 10 -12 15 2 10 26 2 43 -12 26z"/>
<path d="M4280 544 c0 -48 2 -55 16 -50 9 4 26 0 38 -7 26 -17 292 -81 309
-74 15 6 21 57 7 57 -6 0 -10 9 -10 20 0 13 5 18 15 14 19 -8 19 3 1 21 -12
12 -112 35 -153 35 -8 0 -13 -13 -13 -30 0 -20 -5 -30 -15 -30 -8 0 -15 5 -15
11 0 8 -5 7 -15 -1 -19 -16 -34 -5 -17 12 20 20 14 47 -10 52 -48 10 -129 26
-133 26 -3 0 -5 -25 -5 -56z"/>
<path d="M5829 593 c-10 -2 -19 -13 -22 -24 -4 -16 0 -19 26 -20 l32 -1 -27
-11 c-20 -8 -26 -17 -26 -37 1 -15 -2 -31 -5 -36 -10 -17 20 -43 56 -48 35 -4
37 -3 42 30 3 19 7 50 10 69 5 32 4 35 -19 35 -18 0 -26 6 -28 22 -3 23 -13
28 -39 21z"/>
<path d="M5896 584 c-9 -23 -8 -24 14 -24 13 0 20 7 20 20 0 24 -25 27 -34 4z"/>
<path d="M6303 584 c-3 -8 -1 -20 4 -25 7 -7 12 -2 15 15 6 28 -9 36 -19 10z"/>
<path d="M6345 550 c-3 -5 -1 -10 4 -10 6 0 11 5 11 10 0 6 -2 10 -4 10 -3 0
-8 -4 -11 -10z"/>
<path d="M6537 521 c-3 -12 -1 -21 3 -21 15 0 23 21 12 32 -6 6 -11 2 -15 -11z"/>
<path d="M5503 522 c-14 -2 -20 -8 -16 -18 3 -9 21 -14 54 -14 27 0 49 -4 49
-10 0 -5 -20 -10 -45 -10 -62 0 -57 -16 8 -24 28 -4 67 -10 85 -12 29 -4 32
-2 32 22 0 21 -4 25 -20 21 -11 -3 -20 -1 -20 4 0 5 9 9 20 9 11 0 20 6 20 14
0 11 -18 15 -72 18 -40 2 -83 2 -95 0z"/>
<path d="M6086 515 c-11 -30 -6 -45 14 -45 13 0 20 7 20 20 0 11 0 23 1 28 1
15 -29 12 -35 -3z m27 -15 c-3 -11 -9 -20 -13 -20 -5 0 -6 9 -3 20 3 11 9 20
13 20 5 0 6 -9 3 -20z"/>
<path d="M4683 508 c0 -7 -4 -34 -8 -60 -7 -45 -6 -48 14 -48 13 0 22 7 23 18
0 9 2 23 2 31 1 8 6 16 11 18 6 2 10 -15 10 -39 0 -37 3 -42 29 -49 37 -10 46
-4 46 29 -1 32 -21 62 -43 62 -9 0 -18 9 -22 19 -3 10 -16 22 -28 25 -31 8
-34 8 -34 -6z"/>
<path d="M6150 485 c0 -14 2 -25 4 -25 2 0 6 11 8 25 3 14 1 25 -3 25 -5 0 -9
-11 -9 -25z"/>
<path d="M6185 485 c0 -32 15 -44 15 -12 0 14 -4 28 -8 31 -4 2 -8 -6 -7 -19z"/>
<path d="M4801 484 c0 -11 3 -14 6 -6 3 7 2 16 -1 19 -3 4 -6 -2 -5 -13z"/>
<path d="M6236 482 c-3 -5 6 -20 19 -32 19 -18 25 -20 25 -8 0 19 -36 52 -44
40z"/>
<path d="M4930 455 c0 -14 -4 -25 -10 -25 -5 0 -10 -5 -10 -11 0 -5 5 -7 10
-4 13 8 13 -21 0 -46 -7 -13 -7 -19 0 -19 5 0 10 7 10 15 0 9 9 15 25 15 18 0
25 -5 25 -20 0 -22 16 -28 18 -7 1 6 4 27 8 44 3 18 3 44 0 58 -5 21 -12 25
-41 25 -31 0 -35 -3 -35 -25z"/>
<path d="M6400 442 c0 -12 5 -22 12 -22 6 0 20 -7 30 -17 17 -15 18 -15 18 7
0 13 -3 20 -7 17 -3 -4 -17 3 -30 15 l-23 21 0 -21z"/>
<path d="M5220 442 c0 -6 -7 -12 -16 -14 -10 -2 -22 -22 -30 -48 -13 -45 -10
-66 6 -40 8 12 10 10 10 -7 0 -25 15 -31 24 -10 5 9 7 9 12 -1 9 -20 46 -52
60 -52 7 0 18 24 24 55 6 30 14 55 17 55 3 0 3 -9 0 -20 -3 -11 -1 -23 4 -26
6 -3 9 15 7 44 -3 49 -4 51 -38 57 -19 3 -45 9 -57 12 -13 3 -23 1 -23 -5z
m-19 -75 c-8 -8 -11 -7 -11 4 0 20 13 34 18 19 3 -7 -1 -17 -7 -23z"/>
<path d="M6361 434 c0 -11 3 -14 6 -6 3 7 2 16 -1 19 -3 4 -6 -2 -5 -13z"/>
<path d="M6490 405 c0 -14 3 -25 8 -25 4 0 7 11 7 25 0 14 -3 25 -7 25 -5 0
-8 -11 -8 -25z"/>
<path d="M6537 395 c-4 -8 -2 -17 3 -20 6 -4 10 3 10 14 0 25 -6 27 -13 6z"/>
<path d="M5906 393 c-3 -4 -21 -8 -39 -9 -17 0 -36 -2 -42 -3 -18 -3 20 -19
62 -26 38 -6 42 -10 38 -28 -8 -35 7 -46 70 -52 33 -4 69 -11 80 -16 11 -4 76
-13 145 -18 69 -6 173 -15 232 -21 194 -20 188 -9 -22 43 -107 27 -266 69
-353 93 -178 50 -161 46 -171 37z m54 -63 c0 -5 -2 -10 -4 -10 -3 0 -8 5 -11
10 -3 6 -1 10 4 10 6 0 11 -4 11 -10z"/>
<path d="M7570 340 c0 -5 5 -10 11 -10 5 0 7 5 4 10 -3 6 -8 10 -11 10 -2 0
-4 -4 -4 -10z"/>
<path d="M5840 324 c0 -8 32 -33 43 -34 4 0 7 9 7 20 0 15 -7 20 -25 20 -14 0
-25 -3 -25 -6z"/>
<path d="M5365 310 c-3 -5 -1 -18 4 -27 9 -16 10 -14 11 10 0 28 -5 34 -15 17z"/>
<path d="M1003 255 c-130 -63 -227 -88 -345 -89 -65 -1 -91 -4 -80 -10 9 -5
26 -19 37 -31 35 -37 88 -51 106 -28 6 7 18 13 26 13 8 0 12 3 10 8 -3 4 1 13
9 19 7 7 15 9 18 5 2 -4 26 -7 53 -7 34 0 47 4 45 13 -1 7 6 15 15 19 10 4 27
16 39 29 33 35 56 42 109 37 40 -3 46 -2 32 7 -17 11 -17 13 4 31 39 34 15 29
-78 -16z"/>
<path d="M2236 238 c4 -29 8 -54 9 -56 1 -1 10 13 19 33 18 38 9 75 -20 75
-12 0 -13 -10 -8 -52z"/>
<path d="M6745 220 c-7 -12 2 -12 30 0 19 8 19 9 -2 9 -12 1 -25 -3 -28 -9z"/>
<path d="M3535 193 c-46 -10 -49 -13 -29 -28 26 -20 51 -18 63 4 10 17 5 33
-8 30 -3 -1 -15 -3 -26 -6z"/>
<path d="M2283 167 c-6 -13 -8 -29 -4 -36 9 -15 2 -61 -9 -61 -4 0 -11 7 -14
16 -12 30 -18 7 -11 -40 6 -40 10 -46 31 -46 24 0 24 1 22 95 -1 52 -2 95 -3
95 -1 0 -7 -11 -12 -23z"/>
<path d="M3312 178 c-19 -19 -14 -28 14 -28 21 0 24 3 15 13 -6 8 -8 17 -4 20
3 4 2 7 -3 7 -6 0 -15 -5 -22 -12z"/>
<path d="M3390 174 c-16 -18 -2 -22 43 -12 55 12 56 15 7 20 -23 2 -45 -1 -50
-8z"/>
<path d="M546 145 c9 -14 18 -25 20 -25 7 0 -1 25 -13 37 -20 22 -24 14 -7
-12z"/>
<path d="M1748 153 c7 -3 16 -2 19 1 4 3 -2 6 -13 5 -11 0 -14 -3 -6 -6z"/>
<path d="M7556 151 c-4 -6 4 -13 19 -17 14 -3 34 -19 46 -35 11 -16 26 -29 34
-29 13 0 61 67 54 74 -11 11 -147 17 -153 7z"/>
<path d="M1720 131 c0 -10 42 -23 49 -15 7 6 -20 24 -36 24 -7 0 -13 -4 -13
-9z"/>
<path d="M4026 69 c-8 -12 -21 -19 -29 -16 -9 3 -27 -7 -43 -24 l-28 -29 122
0 c67 0 122 2 122 4 0 4 -117 86 -124 86 -2 0 -12 -10 -20 -21z"/>
</g>
</svg>
